# This file uses centimeters as units for non-parametric coordinates.

mtllib anim_rifle_shooting.mtl
g skinCluster1Set tweakSet1
v -0.552804 3.137552 -0.296212
v 0.540886 3.137552 -0.296212
v -0.552804 3.137552 0.236150
v 0.540886 3.137552 0.236150
v -0.436252 3.935116 0.236150
v 0.487093 3.932128 0.236150
v -0.436252 3.935116 -0.296212
v 0.487093 3.932128 -0.296212
v -0.164414 3.963618 -0.584312
v 0.412614 3.951275 0.122830
v -0.576842 3.967035 -0.247711
v 0.000185 3.954692 0.459431
v -0.669387 4.753413 -0.206808
v -0.074661 4.740691 0.522023
v -0.098491 4.710881 -0.673402
v 0.496235 4.698159 0.055429
v -0.455088 5.220890 -0.344925
v 0.111633 5.208767 0.349586
v 0.437388 5.206068 0.083723
v -0.129333 5.218191 -0.610788
v -1.207924 4.430474 -0.307316
v -1.022238 4.219200 -0.321010
v -1.105554 4.504099 -0.055147
v -0.919869 4.292826 -0.068842
v -0.307489 5.180848 -0.465861
v -0.121804 4.969573 -0.479556
v -0.409859 5.107222 -0.718030
v -0.224173 4.895947 -0.731724
v -0.533833 5.030713 0.272603
v -0.483892 4.968722 0.266192
v -0.500896 5.067974 0.159976
v -0.456727 5.022116 0.144649
v -1.086475 4.548969 -0.213812
v -0.865986 4.380436 -0.261609
v -1.173426 4.411124 -0.004969
v -0.952937 4.242591 -0.052766
v -0.522685 5.097573 0.198130
v -0.542368 5.137696 0.361949
v -0.453508 5.099434 0.206140
v -0.473191 5.139557 0.369959
v -0.454049 4.983068 0.240445
v -0.472113 4.962732 0.401730
v -0.523226 4.981207 0.232435
v -0.541291 4.960871 0.393720
v -0.533694 4.991976 0.399675
v -0.526456 4.986464 0.504045
v -0.494123 4.991972 0.396931
v -0.486885 4.986460 0.501301
v -0.494288 4.947668 0.394602
v -0.487050 4.942156 0.498972
v -0.533859 4.947671 0.397347
v -0.526621 4.942159 0.501717
v -0.528702 4.985520 0.508574
v -0.511840 4.981465 0.584523
v -0.489976 4.985826 0.499992
v -0.473114 4.981772 0.575942
v -0.490142 4.941522 0.497664
v -0.473279 4.937468 0.573613
v -0.528867 4.941216 0.506245
v -0.512005 4.937161 0.582195
v -0.513424 4.982686 0.590768
v -0.488793 4.978715 0.664570
v -0.475793 4.983204 0.578237
v -0.451162 4.979233 0.652038
v -0.475958 4.938899 0.575908
v -0.451327 4.934928 0.649710
v -0.513589 4.938381 0.588440
v -0.488958 4.934410 0.662241
v -0.533633 5.033201 0.391908
v -0.526595 5.034445 0.508310
v -0.494057 5.033183 0.388954
v -0.487019 5.034426 0.505355
v -0.494044 4.988784 0.388669
v -0.487005 4.990027 0.505070
v -0.533620 4.988803 0.391623
v -0.526582 4.990046 0.508025
v -0.528847 5.033785 0.513391
v -0.512130 5.034694 0.598127
v -0.490105 5.033696 0.503925
v -0.473388 5.034606 0.588661
v -0.490091 4.989298 0.503640
v -0.473375 4.990207 0.588376
v -0.528833 4.989386 0.513106
v -0.512117 4.990295 0.597842
v -0.513733 5.036307 0.605006
v -0.489274 5.035302 0.664264
v -0.476077 5.036172 0.591133
v -0.451619 5.035167 0.650390
v -0.476064 4.991773 0.590848
v -0.451605 4.990768 0.650105
v -0.513719 4.991909 0.604721
v -0.489260 4.990904 0.663978
v -0.532182 5.081941 0.381730
v -0.526152 5.089620 0.508653
v -0.492585 5.081192 0.378868
v -0.486555 5.088871 0.505790
v -0.493218 5.036784 0.380199
v -0.487189 5.044463 0.507121
v -0.532815 5.037533 0.383061
v -0.526785 5.045212 0.509983
v -0.528458 5.089278 0.514196
v -0.512476 5.094706 0.606695
v -0.489639 5.088105 0.504230
v -0.473658 5.093534 0.596729
v -0.490272 5.043697 0.505561
v -0.474291 5.049125 0.598060
v -0.529091 5.044869 0.515527
v -0.513110 5.050298 0.608026
v -0.514116 5.096729 0.614121
v -0.490197 5.098702 0.678984
v -0.476345 5.095277 0.599342
v -0.452427 5.097250 0.664205
v -0.476979 5.050869 0.600673
v -0.453060 5.052842 0.665536
v -0.514749 5.052320 0.615452
v -0.490830 5.054294 0.680315
v -0.532448 5.137525 0.367907
v -0.529562 5.147553 0.485652
v -0.492790 5.137364 0.366315
v -0.489904 5.147392 0.484059
v -0.492789 5.093056 0.369233
v -0.489903 5.103084 0.486977
v -0.532446 5.093216 0.370825
v -0.529560 5.103244 0.488569
v -0.531993 5.147273 0.490753
v -0.514068 5.155818 0.596364
v -0.492938 5.146551 0.482559
v -0.475012 5.155096 0.588170
v -0.492936 5.102242 0.485477
v -0.475011 5.110787 0.591087
v -0.531992 5.102964 0.493671
v -0.514066 5.111510 0.599281
v -0.515914 5.157943 0.603140
v -0.492103 5.160905 0.668892
v -0.477787 5.156839 0.590459
v -0.453977 5.159801 0.656211
v -0.477786 5.112531 0.593376
v -0.453975 5.115493 0.659128
v -0.515912 5.113635 0.606057
v -0.492102 5.116597 0.671809
v -0.425987 5.180701 0.473741
v -0.384169 5.171854 0.458469
v -0.426200 5.223893 0.448137
v -0.384382 5.215046 0.432865
v -0.480204 5.158441 0.338177
v -0.438386 5.149595 0.322905
v -0.479991 5.115250 0.363781
v -0.438173 5.106403 0.348509
v -0.393954 5.200659 0.546319
v -0.352136 5.191813 0.531046
v -0.389092 5.248512 0.531912
v -0.347274 5.239666 0.516640
v -0.421175 5.228767 0.455501
v -0.379357 5.219921 0.440229
v -0.426037 5.180914 0.469908
v -0.384219 5.172068 0.454636
v -0.566512 1.765898 -0.240990
v -0.153875 1.765898 -0.240990
v -0.566512 1.765898 0.207644
v -0.153875 1.765898 0.207644
v -0.566512 3.106807 0.240344
v -0.153875 3.106807 0.240344
v -0.566512 3.106807 -0.249165
v -0.153875 3.106807 -0.249165
v -0.458794 0.344021 -0.283618
v -0.191577 0.344021 -0.283618
v -0.458794 0.344021 -0.019502
v -0.191577 0.344021 -0.019502
v -0.566512 1.684931 0.192209
v -0.153875 1.684931 0.192209
v -0.566512 1.684931 -0.249165
v -0.153875 1.684931 -0.249165
v -0.454543 0.126746 0.468389
v -0.454543 -0.004780 0.479327
v -0.177777 0.126746 0.468389
v -0.177777 -0.004780 0.479327
v -0.134402 0.263470 -0.183436
v -0.134402 -0.004780 -0.331098
v -0.497917 0.263470 -0.183436
v -0.497917 -0.004780 -0.331098
v 0.340213 4.185034 0.932979
v 0.114592 4.121698 0.776815
v 0.188395 4.375397 1.075115
v -0.037226 4.312061 0.918951
v 0.393950 5.219724 0.360536
v 0.168329 5.156387 0.204372
v 0.545768 5.029361 0.218400
v 0.320147 4.966024 0.062237
v -0.203479 5.024141 1.367447
v -0.256392 5.010228 1.309269
v -0.135955 5.090910 1.289086
v -0.172814 5.086883 1.235104
v 0.272452 4.384725 0.994987
v 0.094190 4.405673 0.777991
v 0.135937 4.192562 1.115877
v -0.042325 4.213509 0.898881
v -0.162364 5.044224 1.396330
v -0.317639 5.075520 1.457522
v -0.153172 5.112378 1.385211
v -0.308447 5.143673 1.446402
v -0.204602 5.101777 1.275845
v -0.366641 5.123978 1.277574
v -0.213794 5.033622 1.286964
v -0.375833 5.055824 1.288693
v -0.374789 5.069743 1.318118
v -0.473902 5.103354 1.322900
v -0.362682 5.106613 1.309904
v -0.461795 5.140223 1.314686
v -0.367512 5.098539 1.266547
v -0.466625 5.132150 1.271329
v -0.379619 5.061670 1.274761
v -0.478732 5.095280 1.279543
v -0.478927 5.102264 1.322933
v -0.548281 5.137732 1.324055
v -0.461383 5.136835 1.314542
v -0.530736 5.172303 1.315663
v -0.466213 5.128762 1.271185
v -0.535566 5.164230 1.272306
v -0.483757 5.094191 1.279576
v -0.553110 5.129658 1.280698
v -0.554449 5.138081 1.326253
v -0.619870 5.180375 1.325665
v -0.533349 5.170601 1.317847
v -0.598771 5.212895 1.317259
v -0.538179 5.162528 1.274490
v -0.603601 5.204822 1.273902
v -0.559278 5.130008 1.282896
v -0.624700 5.172301 1.282308
v -0.360802 5.074536 1.357377
v -0.470417 5.112257 1.370113
v -0.348496 5.111353 1.349124
v -0.458110 5.149073 1.361859
v -0.355255 5.103975 1.305867
v -0.464870 5.141695 1.318602
v -0.367562 5.067159 1.314120
v -0.477176 5.104878 1.326855
v -0.475928 5.111354 1.370484
v -0.552946 5.149828 1.377443
v -0.457595 5.145642 1.361607
v -0.534613 5.184116 1.368565
v -0.464354 5.138264 1.318349
v -0.541372 5.176738 1.325308
v -0.482687 5.103976 1.327227
v -0.559705 5.142450 1.334185
v -0.559663 5.150393 1.380098
v -0.610725 5.189160 1.380816
v -0.537377 5.182474 1.370902
v -0.588439 5.221241 1.371620
v -0.544136 5.175096 1.327645
v -0.595198 5.213863 1.328362
v -0.566422 5.143015 1.336841
v -0.617484 5.181782 1.337559
v -0.342982 5.081251 1.403406
v -0.461896 5.121860 1.423777
v -0.330874 5.117990 1.394447
v -0.449788 5.158599 1.414818
v -0.339338 5.110424 1.351490
v -0.458252 5.151033 1.371860
v -0.351445 5.073685 1.360448
v -0.470359 5.114293 1.380819
v -0.467812 5.121080 1.424520
v -0.551727 5.161656 1.436887
v -0.449154 5.155130 1.414515
v -0.533068 5.195706 1.426883
v -0.457618 5.147564 1.371557
v -0.541532 5.188140 1.383925
v -0.476276 5.113514 1.381562
v -0.560190 5.154090 1.393929
v -0.558912 5.162399 1.440009
v -0.615001 5.202628 1.444357
v -0.535938 5.194131 1.429407
v -0.592027 5.234360 1.433756
v -0.544402 5.186565 1.386450
v -0.600491 5.226794 1.390798
v -0.567375 5.154832 1.397051
v -0.623464 5.195062 1.401399
v -0.320997 5.086495 1.456035
v -0.431501 5.122073 1.478301
v -0.309998 5.123726 1.447779
v -0.420502 5.159304 1.470045
v -0.319814 5.117199 1.404968
v -0.430317 5.152777 1.427234
v -0.330813 5.079969 1.413224
v -0.441316 5.115547 1.435490
v -0.437014 5.121068 1.479081
v -0.532528 5.167477 1.495551
v -0.419925 5.155886 1.469665
v -0.515438 5.202295 1.486135
v -0.429740 5.149359 1.426854
v -0.525253 5.195769 1.443323
v -0.446830 5.114542 1.436270
v -0.542343 5.160951 1.452740
v -0.539124 5.167868 1.498741
v -0.595933 5.208393 1.504172
v -0.518020 5.200552 1.488641
v -0.574829 5.241076 1.494072
v -0.527835 5.194026 1.445830
v -0.584644 5.234550 1.451261
v -0.548939 5.161342 1.455930
v -0.605749 5.201867 1.461361
v -0.390031 5.222788 1.488556
v -0.366787 5.257018 1.469892
v -0.358712 5.222920 1.527802
v -0.335469 5.257150 1.509138
v -0.276691 5.131705 1.462657
v -0.253448 5.165935 1.443993
v -0.308010 5.131572 1.423411
v -0.284767 5.165802 1.404747
v -0.448715 5.275732 1.509648
v -0.425472 5.309962 1.490985
v -0.426168 5.284420 1.553663
v -0.402924 5.318650 1.534999
v -0.363789 5.230449 1.532362
v -0.340546 5.264678 1.513698
v -0.386337 5.221760 1.488347
v -0.363093 5.255990 1.469684
v 0.561064 1.765898 -0.240990
v 0.148427 1.765898 -0.240990
v 0.561064 1.765898 0.207644
v 0.148427 1.765898 0.207644
v 0.561064 3.106807 0.240344
v 0.148427 3.106807 0.240344
v 0.561064 3.106807 -0.249165
v 0.148427 3.106807 -0.249165
v 0.453346 0.344021 -0.283618
v 0.186129 0.344021 -0.283618
v 0.453346 0.344021 -0.019502
v 0.186129 0.344021 -0.019502
v 0.561064 1.684931 0.192209
v 0.148427 1.684931 0.192209
v 0.561064 1.684931 -0.249165
v 0.148427 1.684931 -0.249165
v 0.449095 0.126746 0.468389
v 0.449095 -0.004780 0.479327
v 0.172329 0.126746 0.468389
v 0.172329 -0.004780 0.479327
v 0.128954 0.263470 -0.183436
v 0.128954 -0.004780 -0.331098
v 0.492470 0.263470 -0.183436
v 0.492470 -0.004780 -0.331098
v -0.208291 5.324852 -0.346394
v 0.174896 5.498637 -0.331371
v -0.231469 5.330400 0.180635
v 0.151718 5.504184 0.195657
v -0.501555 5.927497 0.162471
v -0.118368 6.101282 0.177494
v -0.478377 5.921950 -0.364557
v -0.095190 6.095734 -0.349534
v 0.051886 5.222129 -0.373849
v 0.247294 5.239318 -0.122664
v -0.248335 5.189044 -0.138030
v -0.052928 5.206233 0.113155
v -0.268887 5.390996 -0.135861
v -0.073480 5.408184 0.115324
v 0.031334 5.424080 -0.371681
v 0.226742 5.441269 -0.120495
vt -0.818358 0.539059
vt 1.827741 0.539059
vt 1.827741 0.539059
vt -0.818358 0.539059
vt 1.697593 1.243497
vt -0.536371 1.246146
vt 1.697593 1.243497
vt -0.536371 1.246146
vt -0.551619 1.266956
vt 1.656777 1.266956
vt 1.656777 1.266956
vt -0.551619 1.266956
vt 1.633905 1.963171
vt -0.642226 1.963171
vt -0.588635 2.379354
vt 1.580315 2.379354
vt 1.580315 2.379354
vt -0.588635 2.379354
vt -0.642226 1.929657
vt 1.633905 1.929657
vt -1.829305 1.362691
vt -1.171224 1.298027
vt -1.171224 1.298027
vt -1.829305 1.362691
vt -0.380079 2.247441
vt -1.038160 2.312105
vt -0.380079 2.247441
vt -1.038160 2.312105
vt -2.218463 0.595557
vt -2.028256 0.587219
vt -2.012688 0.616319
vt -2.170330 0.621539
vt -1.172221 1.298239
vt -1.830302 1.358948
vt -1.172221 1.288851
vt -1.830302 1.349560
vt -2.197947 0.616379
vt -2.246803 0.470315
vt -2.079497 0.462945
vt -2.030640 0.609009
vt -2.078335 0.438951
vt -2.033023 0.581350
vt -2.245641 0.446321
vt -2.200330 0.588720
vt -2.227114 0.440286
vt -2.210593 0.347895
vt -2.114830 0.350197
vt -2.131351 0.442588
vt -2.115497 0.353305
vt -2.132019 0.445696
vt -2.211260 0.351003
vt -2.227782 0.443394
vt -2.216073 0.343911
vt -2.175997 0.276642
vt -2.082225 0.284113
vt -2.122301 0.351382
vt -2.082892 0.287221
vt -2.122968 0.354490
vt -2.176665 0.279750
vt -2.216741 0.347020
vt -2.179880 0.271084
vt -2.120988 0.205691
vt -2.029826 0.216661
vt -2.088718 0.282054
vt -2.030494 0.219769
vt -2.089386 0.285162
vt -2.121656 0.208799
vt -2.180548 0.274192
vt -2.226627 0.446197
vt -2.210655 0.342985
vt -2.114877 0.345474
vt -2.130848 0.448686
vt -2.115131 0.346773
vt -2.131104 0.449985
vt -2.210910 0.344284
vt -2.226882 0.447496
vt -2.216153 0.338505
vt -2.176477 0.263333
vt -2.082659 0.271596
vt -2.122335 0.346769
vt -2.082913 0.272895
vt -2.122589 0.348068
vt -2.176732 0.264632
vt -2.216408 0.339804
vt -2.180407 0.257203
vt -2.121779 0.204630
vt -2.030550 0.216805
vt -2.089178 0.269378
vt -2.030805 0.218104
vt -2.089433 0.270677
vt -2.122034 0.205929
vt -2.180662 0.258502
vt -2.222703 0.454064
vt -2.209224 0.341380
vt -2.113403 0.343804
vt -2.126882 0.456489
vt -2.115238 0.343673
vt -2.128716 0.456358
vt -2.211059 0.341249
vt -2.224538 0.453933
vt -2.214856 0.336483
vt -2.177001 0.254326
vt -2.083000 0.263058
vt -2.120855 0.345215
vt -2.084834 0.262927
vt -2.122689 0.345084
vt -2.178836 0.254195
vt -2.216691 0.336352
vt -2.181022 0.247702
vt -2.123733 0.190093
vt -2.032226 0.203101
vt -2.089515 0.260711
vt -2.034061 0.202970
vt -2.091350 0.260580
vt -2.125568 0.189962
vt -2.182857 0.247572
vt -2.222856 0.465006
vt -2.216885 0.360410
vt -2.120925 0.361695
vt -2.126896 0.466291
vt -2.121238 0.360154
vt -2.127209 0.464749
vt -2.217198 0.358868
vt -2.223169 0.463464
vt -2.222817 0.355904
vt -2.180357 0.262047
vt -2.085796 0.269198
vt -2.128256 0.363054
vt -2.086109 0.267657
vt -2.128569 0.361513
vt -2.180670 0.260506
vt -2.223129 0.354362
vt -2.184871 0.255998
vt -2.127846 0.197578
vt -2.035494 0.208717
vt -2.092520 0.267137
vt -2.035807 0.207176
vt -2.092833 0.265596
vt -2.128158 0.196036
vt -2.185184 0.254456
vt -1.965971 0.369844
vt -1.864715 0.383450
vt -1.864715 0.405124
vt -1.965971 0.391518
vt -1.994794 0.504295
vt -2.096051 0.490689
vt -1.994794 0.482621
vt -2.096051 0.469015
vt -1.889005 0.304948
vt -1.787748 0.318554
vt -1.775541 0.330178
vt -1.876797 0.316572
vt -1.852591 0.398467
vt -1.953848 0.384861
vt -1.864799 0.386843
vt -1.966056 0.373237
vt -0.851524 -0.676993
vt 0.146819 -0.676993
vt 0.146819 -0.676993
vt -0.851524 -0.676993
vt 0.146819 0.511802
vt -0.851524 0.511802
vt 0.146819 0.511802
vt -0.851524 0.511802
vt -0.590908 -1.937570
vt 0.055604 -1.937570
vt 0.055604 -1.937570
vt -0.590908 -1.937570
vt 0.146819 -0.748775
vt -0.851524 -0.748775
vt 0.146819 -0.748775
vt -0.851524 -0.748775
vt -0.580623 -2.130197
vt -0.580623 -2.246803
vt 0.088991 -2.246803
vt 0.088991 -2.130197
vt 0.193933 -2.246803
vt 0.193933 -2.008983
vt -0.685565 -2.246803
vt -0.685565 -2.008983
vt 2.829305 1.362691
vt 2.829305 1.362691
vt 2.171224 1.298027
vt 2.171224 1.298027
vt 2.030129 2.312105
vt 1.372048 2.247441
vt 2.030129 2.312105
vt 1.372048 2.247441
vt 3.218463 0.595557
vt 3.170330 0.621539
vt 3.012688 0.616319
vt 3.028256 0.587219
vt 2.830302 1.358948
vt 2.172221 1.298239
vt 2.830302 1.349560
vt 2.172221 1.288851
vt 3.197947 0.616379
vt 3.030640 0.609009
vt 3.079497 0.462945
vt 3.246803 0.470315
vt 3.033024 0.581350
vt 3.078335 0.438951
vt 3.200330 0.588720
vt 3.245641 0.446321
vt 3.227114 0.440286
vt 3.131351 0.442588
vt 3.114830 0.350197
vt 3.210593 0.347895
vt 3.132019 0.445696
vt 3.115497 0.353305
vt 3.227782 0.443394
vt 3.211260 0.351003
vt 3.216074 0.343911
vt 3.122301 0.351382
vt 3.082225 0.284113
vt 3.175997 0.276642
vt 3.122968 0.354490
vt 3.082892 0.287221
vt 3.216741 0.347020
vt 3.176665 0.279750
vt 3.179880 0.271084
vt 3.088718 0.282054
vt 3.029826 0.216661
vt 3.120988 0.205691
vt 3.089386 0.285162
vt 3.030494 0.219769
vt 3.180548 0.274192
vt 3.121656 0.208799
vt 3.226627 0.446197
vt 3.130849 0.448686
vt 3.114877 0.345474
vt 3.210655 0.342985
vt 3.131104 0.449985
vt 3.115131 0.346773
vt 3.226882 0.447496
vt 3.210910 0.344284
vt 3.216153 0.338505
vt 3.122335 0.346769
vt 3.082659 0.271596
vt 3.176477 0.263333
vt 3.122589 0.348068
vt 3.082913 0.272895
vt 3.216408 0.339804
vt 3.176732 0.264632
vt 3.180407 0.257203
vt 3.089178 0.269378
vt 3.030550 0.216805
vt 3.121779 0.204630
vt 3.089433 0.270677
vt 3.030805 0.218104
vt 3.180662 0.258502
vt 3.122034 0.205929
vt 3.222703 0.454064
vt 3.126882 0.456489
vt 3.113403 0.343804
vt 3.209224 0.341380
vt 3.128716 0.456358
vt 3.115238 0.343673
vt 3.224538 0.453933
vt 3.211059 0.341249
vt 3.214856 0.336483
vt 3.120855 0.345215
vt 3.083000 0.263058
vt 3.177001 0.254326
vt 3.122689 0.345084
vt 3.084834 0.262927
vt 3.216691 0.336352
vt 3.178836 0.254195
vt 3.181022 0.247702
vt 3.089515 0.260711
vt 3.032226 0.203101
vt 3.123733 0.190093
vt 3.091350 0.260580
vt 3.034061 0.202970
vt 3.182857 0.247572
vt 3.125568 0.189962
vt 3.222857 0.465006
vt 3.126896 0.466291
vt 3.120925 0.361695
vt 3.216885 0.360410
vt 3.127209 0.464749
vt 3.121238 0.360154
vt 3.223169 0.463464
vt 3.217198 0.358868
vt 3.222817 0.355904
vt 3.128256 0.363054
vt 3.085796 0.269198
vt 3.180357 0.262047
vt 3.128569 0.361513
vt 3.086109 0.267657
vt 3.223129 0.354362
vt 3.180670 0.260506
vt 3.184871 0.255998
vt 3.092520 0.267137
vt 3.035494 0.208717
vt 3.127846 0.197578
vt 3.092833 0.265596
vt 3.035807 0.207176
vt 3.185184 0.254456
vt 3.128159 0.196036
vt 2.965971 0.369844
vt 2.965971 0.391518
vt 2.864715 0.405124
vt 2.864715 0.383450
vt 3.096051 0.490689
vt 2.994794 0.504295
vt 3.096051 0.469015
vt 2.994794 0.482621
vt 2.889005 0.304948
vt 2.876797 0.316572
vt 2.775541 0.330178
vt 2.787748 0.318554
vt 2.953848 0.384861
vt 2.852592 0.398467
vt 2.966056 0.373237
vt 2.864799 0.386843
vt 1.876561 -0.676993
vt 1.876561 -0.676993
vt 0.878218 -0.676993
vt 0.878218 -0.676993
vt 1.876561 0.511802
vt 0.878218 0.511802
vt 1.876561 0.511802
vt 0.878218 0.511802
vt 1.615946 -1.937570
vt 1.615946 -1.937570
vt 0.969433 -1.937570
vt 0.969433 -1.937570
vt 1.876561 -0.748775
vt 0.878218 -0.748775
vt 1.876561 -0.748775
vt 0.878218 -0.748775
vt 1.605661 -2.130197
vt 0.936046 -2.130197
vt 0.936046 -2.246803
vt 1.605661 -2.246803
vt 0.831105 -2.008983
vt 0.831105 -2.246803
vt 1.710602 -2.008983
vt 1.710602 -2.246803
vt -0.082858 2.557143
vt 1.125819 2.557143
vt 1.125819 2.557143
vt -0.082858 2.557143
vt 1.125819 3.246803
vt -0.082858 3.246803
vt 1.125819 3.246803
vt -0.082858 3.246803
vt 0.132600 2.382169
vt 0.903686 2.382169
vt 0.903686 2.382169
vt 0.132600 2.382169
vt 0.903686 2.562145
vt 0.132600 2.562145
vt 0.903686 2.562145
vt 0.132600 2.562145
vn 0.000000 -1.000000 0.000000
vn 0.000000 -1.000000 0.000000
vn 0.000000 -1.000000 0.000000
vn 0.000000 -1.000000 0.000000
vn 0.000000 0.000000 1.000000
vn -0.000000 0.000000 1.000000
vn -0.000000 0.000000 1.000000
vn -0.000000 0.000000 1.000000
vn 0.003236 0.999995 0.000000
vn 0.003236 0.999995 0.000000
vn 0.003236 0.999995 0.000000
vn 0.003236 0.999995 0.000000
vn 0.000000 0.000000 -1.000000
vn 0.000000 0.000000 -1.000000
vn 0.000000 0.000000 -1.000000
vn 0.000000 0.000000 -1.000000
vn 0.997716 0.067545 0.000000
vn 0.997716 0.067545 0.000000
vn 0.997716 0.067545 0.000000
vn 0.997716 0.067546 0.000000
vn -0.989491 0.144598 0.000000
vn -0.989491 0.144598 0.000000
vn -0.989491 0.144598 0.000000
vn -0.989491 0.144598 0.000000
vn -0.013523 -0.999888 -0.006420
vn -0.013523 -0.999888 -0.006419
vn -0.013523 -0.999888 -0.006419
vn -0.013523 -0.999888 -0.006418
vn -0.769937 -0.123177 0.626119
vn -0.769937 -0.123177 0.626118
vn -0.769937 -0.123177 0.626118
vn -0.769937 -0.123176 0.626118
vn 0.013524 0.999888 0.006419
vn 0.013523 0.999888 0.006418
vn 0.013523 0.999888 0.006418
vn 0.013523 0.999888 0.006417
vn 0.765678 -0.142333 -0.627279
vn 0.765679 -0.142333 -0.627278
vn 0.765679 -0.142333 -0.627278
vn 0.765679 -0.142333 -0.627278
vn 0.632287 -0.000877 0.774734
vn 0.632526 -0.001143 0.774538
vn 0.632526 -0.001143 0.774538
vn 0.632765 -0.001409 0.774343
vn -0.632052 -0.036526 -0.774065
vn -0.633022 -0.035476 -0.773321
vn -0.633022 -0.035476 -0.773321
vn -0.633990 -0.034426 -0.772575
vn -0.677219 0.476173 0.560922
vn -0.677219 0.476173 0.560923
vn -0.677219 0.476173 0.560923
vn -0.677218 0.476172 0.560924
vn 0.633942 0.032352 0.772704
vn 0.633049 0.031232 0.773482
vn 0.633049 0.031232 0.773482
vn 0.632154 0.030112 0.774258
vn 0.769859 0.124072 -0.626038
vn 0.769858 0.124072 -0.626038
vn 0.769858 0.124072 -0.626038
vn 0.769858 0.124072 -0.626039
vn -0.629058 0.059369 -0.775088
vn -0.630016 0.058250 -0.774394
vn -0.630016 0.058250 -0.774394
vn -0.630973 0.057131 -0.773699
vn -0.658322 -0.607409 0.444597
vn -0.658323 -0.607409 0.444596
vn -0.658323 -0.607409 0.444596
vn -0.658324 -0.607409 0.444595
vn 0.303573 0.206514 0.930159
vn 0.303573 0.206514 0.930159
vn 0.303573 0.206514 0.930159
vn 0.303574 0.206514 0.930158
vn 0.658324 0.607408 -0.444597
vn 0.658323 0.607408 -0.444597
vn 0.658323 0.607408 -0.444597
vn 0.658323 0.607408 -0.444597
vn -0.303574 -0.206514 -0.930159
vn -0.303573 -0.206514 -0.930159
vn -0.303573 -0.206514 -0.930159
vn -0.303573 -0.206514 -0.930159
vn 0.636365 -0.770668 -0.033325
vn 0.636365 -0.770668 -0.033325
vn 0.636365 -0.770668 -0.033325
vn 0.636366 -0.770668 -0.033324
vn -0.636365 0.770668 0.033325
vn -0.636365 0.770668 0.033325
vn -0.636365 0.770668 0.033325
vn -0.636366 0.770668 0.033324
vn 0.734378 0.550585 0.396920
vn 0.728244 0.555004 0.402033
vn 0.728244 0.555004 0.402033
vn 0.722050 0.559377 0.407113
vn 0.162102 0.449698 -0.878348
vn 0.159775 0.452157 -0.877511
vn 0.159775 0.452157 -0.877511
vn 0.157447 0.454611 -0.876664
vn -0.561896 -0.563321 -0.605758
vn -0.561896 -0.563321 -0.605757
vn -0.561896 -0.563321 -0.605757
vn -0.561896 -0.563322 -0.605757
vn -0.074056 -0.360577 0.929785
vn -0.126817 -0.302564 0.944655
vn -0.126817 -0.302564 0.944655
vn -0.178771 -0.242623 0.953507
vn 0.841281 -0.540559 -0.006525
vn 0.847403 -0.530486 -0.022187
vn 0.847403 -0.530486 -0.022187
vn 0.853200 -0.520209 -0.037839
vn -0.720437 0.677687 0.147345
vn -0.700736 0.706932 0.096001
vn -0.700736 0.706932 0.096001
vn -0.678316 0.733435 0.044284
vn 0.001395 0.971330 -0.237731
vn 0.001395 0.971330 -0.237731
vn 0.001395 0.971330 -0.237731
vn 0.001395 0.971330 -0.237732
vn 0.993259 0.028505 0.112359
vn 0.993159 0.027573 0.113471
vn 0.993159 0.027573 0.113471
vn 0.993056 0.026641 0.114583
vn 0.040632 -0.991881 -0.120507
vn 0.040635 -0.991880 -0.120509
vn 0.040635 -0.991880 -0.120509
vn 0.040639 -0.991880 -0.120511
vn -0.993057 -0.026641 -0.114581
vn -0.993159 -0.027573 -0.113471
vn -0.993159 -0.027573 -0.113471
vn -0.993259 -0.028505 -0.112360
vn -0.117891 0.174915 0.977500
vn -0.117891 0.174915 0.977500
vn -0.117891 0.174915 0.977500
vn -0.117892 0.174916 0.977500
vn 0.117841 -0.281309 -0.952354
vn 0.117840 -0.281309 -0.952355
vn 0.117840 -0.281309 -0.952355
vn 0.117839 -0.281308 -0.952355
vn 0.003724 0.998615 0.052481
vn 0.003724 0.998615 0.052481
vn 0.003724 0.998615 0.052481
vn 0.003724 0.998615 0.052481
vn 0.997603 -0.000083 -0.069190
vn 0.997604 -0.000082 -0.069189
vn 0.997604 -0.000082 -0.069189
vn 0.997604 -0.000082 -0.069188
vn -0.003712 -0.998615 -0.052481
vn -0.003718 -0.998615 -0.052478
vn -0.003718 -0.998615 -0.052478
vn -0.003724 -0.998615 -0.052476
vn -0.997604 0.000083 0.069190
vn -0.997604 0.000082 0.069189
vn -0.997604 0.000082 0.069189
vn -0.997604 0.000080 0.069188
vn 0.069095 -0.052617 0.996222
vn 0.069091 -0.052614 0.996222
vn 0.069091 -0.052614 0.996222
vn 0.069086 -0.052611 0.996222
vn -0.069091 0.052610 -0.996222
vn -0.069090 0.052613 -0.996222
vn -0.069090 0.052613 -0.996222
vn -0.069089 0.052616 -0.996222
vn 0.003724 0.998615 0.052474
vn 0.003724 0.998616 0.052472
vn 0.003724 0.998616 0.052472
vn 0.003724 0.998616 0.052470
vn 0.976287 0.007731 -0.216342
vn 0.976287 0.007732 -0.216341
vn 0.976287 0.007732 -0.216341
vn 0.976287 0.007732 -0.216341
vn -0.003724 -0.998614 -0.052494
vn -0.003724 -0.998614 -0.052498
vn -0.003724 -0.998614 -0.052498
vn -0.003724 -0.998614 -0.052503
vn -0.976286 -0.007730 0.216345
vn -0.976286 -0.007732 0.216347
vn -0.976286 -0.007732 0.216347
vn -0.976285 -0.007734 0.216350
vn 0.216447 -0.052044 0.974906
vn 0.216445 -0.052044 0.974907
vn 0.216445 -0.052044 0.974907
vn 0.216443 -0.052044 0.974907
vn -0.216451 0.052046 -0.974905
vn -0.216450 0.052046 -0.974906
vn -0.216450 0.052046 -0.974906
vn -0.216448 0.052045 -0.974906
vn 0.003723 0.998616 0.052465
vn 0.003723 0.998616 0.052472
vn 0.003723 0.998616 0.052472
vn 0.003723 0.998615 0.052479
vn 0.948698 0.013067 -0.315914
vn 0.948695 0.013067 -0.315923
vn 0.948695 0.013067 -0.315923
vn 0.948692 0.013067 -0.315933
vn -0.003723 -0.998615 -0.052484
vn -0.003723 -0.998616 -0.052472
vn -0.003723 -0.998616 -0.052472
vn -0.003723 -0.998616 -0.052460
vn -0.948698 -0.013071 0.315915
vn -0.948695 -0.013068 0.315922
vn -0.948695 -0.013068 0.315922
vn -0.948693 -0.013065 0.315929
vn 0.316168 -0.050967 0.947333
vn 0.316173 -0.050968 0.947331
vn 0.316173 -0.050968 0.947331
vn 0.316178 -0.050969 0.947330
vn -0.316161 0.050965 -0.947336
vn -0.316171 0.050967 -0.947332
vn -0.316171 0.050967 -0.947332
vn -0.316182 0.050969 -0.947329
vn -0.000326 0.999943 -0.010664
vn -0.000326 0.999943 -0.010664
vn -0.000326 0.999943 -0.010664
vn -0.000326 0.999943 -0.010664
vn 0.998177 0.000692 -0.060360
vn 0.998176 0.000690 -0.060362
vn 0.998176 0.000690 -0.060362
vn 0.998176 0.000688 -0.060364
vn 0.000326 -0.999943 0.010664
vn 0.000326 -0.999943 0.010664
vn 0.000326 -0.999943 0.010664
vn 0.000326 -0.999943 0.010664
vn -0.998176 -0.000687 0.060361
vn -0.998176 -0.000690 0.060361
vn -0.998176 -0.000690 0.060361
vn -0.998176 -0.000694 0.060361
vn 0.074447 -0.006380 0.997205
vn 0.074447 -0.006378 0.997205
vn 0.074447 -0.006378 0.997205
vn 0.074447 -0.006375 0.997205
vn -0.074438 0.006375 -0.997205
vn -0.074443 0.006381 -0.997205
vn -0.074443 0.006381 -0.997205
vn -0.074449 0.006386 -0.997204
vn -0.000328 0.999943 -0.010674
vn -0.000323 0.999943 -0.010667
vn -0.000323 0.999943 -0.010667
vn -0.000317 0.999943 -0.010661
vn 0.981085 0.001543 -0.193573
vn 0.981085 0.001543 -0.193570
vn 0.981085 0.001543 -0.193570
vn 0.981086 0.001542 -0.193567
vn 0.000328 -0.999943 0.010678
vn 0.000328 -0.999943 0.010659
vn 0.000328 -0.999943 0.010659
vn 0.000328 -0.999943 0.010639
vn -0.981086 -0.001543 0.193569
vn -0.981085 -0.001541 0.193569
vn -0.981085 -0.001541 0.193569
vn -0.981085 -0.001539 0.193569
vn 0.237320 -0.006164 0.971412
vn 0.237323 -0.006165 0.971411
vn 0.237323 -0.006165 0.971411
vn 0.237327 -0.006165 0.971410
vn -0.237330 0.006170 -0.971410
vn -0.237325 0.006170 -0.971411
vn -0.237325 0.006170 -0.971411
vn -0.237321 0.006169 -0.971412
vn 0.008545 0.999873 0.013435
vn 0.008545 0.999873 0.013435
vn 0.008545 0.999873 0.013435
vn 0.008545 0.999873 0.013435
vn 0.924366 0.002728 -0.381497
vn 0.924368 0.002729 -0.381492
vn 0.924368 0.002729 -0.381492
vn 0.924370 0.002731 -0.381488
vn -0.008556 -0.999873 -0.013423
vn -0.008556 -0.999873 -0.013429
vn -0.008556 -0.999873 -0.013429
vn -0.008556 -0.999873 -0.013435
vn -0.924370 -0.002729 0.381488
vn -0.924368 -0.002731 0.381492
vn -0.924368 -0.002731 0.381492
vn -0.924366 -0.002732 0.381497
vn 0.345689 -0.005927 0.938331
vn 0.345687 -0.005920 0.938331
vn 0.345687 -0.005920 0.938331
vn 0.345685 -0.005914 0.938332
vn -0.345683 0.005920 -0.938333
vn -0.345683 0.005920 -0.938333
vn -0.345683 0.005920 -0.938333
vn -0.345683 0.005919 -0.938333
vn 0.014467 0.998029 -0.061072
vn 0.014467 0.998029 -0.061070
vn 0.014467 0.998029 -0.061070
vn 0.014466 0.998029 -0.061068
vn 0.998796 -0.015643 -0.046505
vn 0.998796 -0.015640 -0.046504
vn 0.998796 -0.015640 -0.046504
vn 0.998796 -0.015638 -0.046503
vn -0.014478 -0.998029 0.061068
vn -0.014479 -0.998029 0.061070
vn -0.014479 -0.998029 0.061070
vn -0.014479 -0.998028 0.061072
vn -0.998796 0.015641 0.046504
vn -0.998796 0.015641 0.046504
vn -0.998796 0.015641 0.046504
vn -0.998796 0.015641 0.046505
vn 0.072614 0.028841 0.996943
vn 0.072614 0.028844 0.996943
vn 0.072614 0.028844 0.996943
vn 0.072615 0.028847 0.996943
vn -0.072616 -0.028846 -0.996943
vn -0.072616 -0.028846 -0.996943
vn -0.072616 -0.028846 -0.996943
vn -0.072615 -0.028846 -0.996943
vn 0.014468 0.998029 -0.061066
vn 0.014468 0.998029 -0.061070
vn 0.014468 0.998029 -0.061070
vn 0.014468 0.998028 -0.061074
vn 0.985408 -0.019123 -0.169134
vn 0.985408 -0.019123 -0.169130
vn 0.985408 -0.019123 -0.169130
vn 0.985409 -0.019122 -0.169126
vn -0.014468 -0.998029 0.061058
vn -0.014468 -0.998029 0.061068
vn -0.014468 -0.998029 0.061068
vn -0.014468 -0.998028 0.061078
vn -0.985408 0.019126 0.169129
vn -0.985408 0.019125 0.169130
vn -0.985408 0.019125 0.169130
vn -0.985408 0.019125 0.169130
vn 0.249309 0.025455 0.968089
vn 0.249305 0.025457 0.968090
vn 0.249305 0.025457 0.968090
vn 0.249300 0.025460 0.968092
vn -0.249304 -0.025456 -0.968091
vn -0.249304 -0.025456 -0.968091
vn -0.249304 -0.025456 -0.968091
vn -0.249303 -0.025457 -0.968091
vn 0.023169 0.998974 -0.038922
vn 0.023169 0.998973 -0.038932
vn 0.023169 0.998973 -0.038932
vn 0.023169 0.998973 -0.038943
vn 0.938211 -0.023728 -0.345249
vn 0.938210 -0.023730 -0.345252
vn 0.938210 -0.023730 -0.345252
vn 0.938209 -0.023732 -0.345254
vn -0.023166 -0.998973 0.038932
vn -0.023166 -0.998973 0.038935
vn -0.023166 -0.998973 0.038935
vn -0.023166 -0.998973 0.038938
vn -0.938212 0.023731 0.345247
vn -0.938211 0.023732 0.345249
vn -0.938211 0.023732 0.345249
vn -0.938211 0.023732 0.345251
vn 0.365056 0.022690 0.930709
vn 0.365053 0.022684 0.930711
vn 0.365053 0.022684 0.930711
vn 0.365050 0.022679 0.930712
vn -0.365057 -0.022685 -0.930709
vn -0.365058 -0.022685 -0.930708
vn -0.365058 -0.022685 -0.930708
vn -0.365059 -0.022684 -0.930708
vn 0.000628 0.996392 -0.084873
vn 0.000622 0.996391 -0.084876
vn 0.000622 0.996391 -0.084876
vn 0.000617 0.996391 -0.084878
vn 0.999702 -0.001573 -0.024369
vn 0.999702 -0.001573 -0.024369
vn 0.999702 -0.001573 -0.024369
vn 0.999702 -0.001572 -0.024368
vn -0.000618 -0.996391 0.084878
vn -0.000617 -0.996391 0.084876
vn -0.000617 -0.996391 0.084876
vn -0.000617 -0.996392 0.084873
vn -0.999702 0.001567 0.024368
vn -0.999702 0.001569 0.024369
vn -0.999702 0.001569 0.024369
vn -0.999702 0.001570 0.024369
vn 0.040318 0.065643 0.997028
vn 0.040311 0.065648 0.997028
vn 0.040311 0.065648 0.997028
vn 0.040303 0.065653 0.997028
vn -0.040306 -0.065654 -0.997028
vn -0.040303 -0.065655 -0.997028
vn -0.040303 -0.065655 -0.997028
vn -0.040299 -0.065657 -0.997028
vn 0.001463 0.996721 -0.080896
vn 0.001458 0.996721 -0.080897
vn 0.001458 0.996721 -0.080897
vn 0.001452 0.996721 -0.080897
vn 0.985985 -0.010928 -0.166476
vn 0.985986 -0.010928 -0.166473
vn 0.985986 -0.010928 -0.166473
vn 0.985986 -0.010927 -0.166469
vn -0.001453 -0.996723 0.080883
vn -0.001458 -0.996722 0.080895
vn -0.001458 -0.996722 0.080895
vn -0.001463 -0.996721 0.080907
vn -0.985985 0.010931 0.166473
vn -0.985985 0.010928 0.166473
vn -0.985985 0.010928 0.166473
vn -0.985986 0.010925 0.166473
vn 0.206052 0.064292 0.976427
vn 0.206054 0.064292 0.976426
vn 0.206054 0.064292 0.976426
vn 0.206056 0.064292 0.976426
vn -0.206055 -0.064303 -0.976425
vn -0.206054 -0.064302 -0.976426
vn -0.206054 -0.064302 -0.976426
vn -0.206054 -0.064302 -0.976426
vn 0.012451 0.998696 -0.049507
vn 0.012451 0.998697 -0.049499
vn 0.012451 0.998697 -0.049499
vn 0.012452 0.998697 -0.049491
vn 0.940333 -0.022325 -0.339521
vn 0.940335 -0.022324 -0.339518
vn 0.940335 -0.022324 -0.339518
vn 0.940336 -0.022323 -0.339514
vn -0.012451 -0.998697 0.049501
vn -0.012451 -0.998696 0.049504
vn -0.012451 -0.998696 0.049504
vn -0.012451 -0.998696 0.049506
vn -0.940335 0.022330 0.339517
vn -0.940335 0.022328 0.339516
vn -0.940335 0.022328 0.339516
vn -0.940336 0.022327 0.339514
vn 0.316618 0.062341 0.946503
vn 0.316624 0.062333 0.946501
vn 0.316624 0.062333 0.946501
vn 0.316631 0.062325 0.946499
vn -0.316622 -0.062335 -0.946501
vn -0.316627 -0.062330 -0.946500
vn -0.316627 -0.062330 -0.946500
vn -0.316632 -0.062325 -0.946499
vn 0.388804 0.471231 0.791690
vn 0.388810 0.471234 0.791685
vn 0.388810 0.471234 0.791685
vn 0.388816 0.471237 0.791680
vn -0.004251 0.860212 -0.509919
vn -0.004253 0.860207 -0.509927
vn -0.004253 0.860207 -0.509927
vn -0.004254 0.860202 -0.509935
vn -0.388811 -0.471243 -0.791679
vn -0.388813 -0.471237 -0.791682
vn -0.388813 -0.471237 -0.791682
vn -0.388815 -0.471230 -0.791685
vn 0.004250 -0.860211 0.509920
vn 0.004253 -0.860207 0.509927
vn 0.004253 -0.860207 0.509927
vn 0.004256 -0.860203 0.509934
vn 0.921304 -0.194904 -0.336469
vn 0.921306 -0.194903 -0.336464
vn 0.921306 -0.194903 -0.336464
vn 0.921308 -0.194903 -0.336459
vn -0.921304 0.194904 0.336468
vn -0.921306 0.194903 0.336463
vn -0.921306 0.194903 0.336463
vn -0.921308 0.194902 0.336458
vn 0.376585 0.231765 0.896922
vn 0.376587 0.231766 0.896921
vn 0.376587 0.231766 0.896921
vn 0.376589 0.231766 0.896920
vn 0.096824 0.953047 -0.286926
vn 0.096828 0.953048 -0.286922
vn 0.096828 0.953048 -0.286922
vn 0.096831 0.953049 -0.286918
vn -0.376584 -0.231765 -0.896922
vn -0.376583 -0.231764 -0.896923
vn -0.376583 -0.231764 -0.896923
vn -0.376583 -0.231764 -0.896923
vn -0.096833 -0.953044 0.286932
vn -0.096833 -0.953045 0.286929
vn -0.096833 -0.953045 0.286929
vn -0.096833 -0.953046 0.286926
vn 0.921305 -0.194902 -0.336468
vn 0.921306 -0.194903 -0.336465
vn 0.921306 -0.194903 -0.336465
vn 0.921306 -0.194904 -0.336462
vn -0.921305 0.194904 0.336465
vn -0.921306 0.194904 0.336464
vn -0.921306 0.194904 0.336464
vn -0.921306 0.194904 0.336463
vn 0.000000 -1.000000 0.000000
vn 0.000000 -1.000000 0.000000
vn 0.000000 -1.000000 0.000000
vn 0.000000 -1.000000 0.000000
vn 0.000000 -0.024379 0.999703
vn 0.000000 -0.024379 0.999703
vn 0.000000 -0.024379 0.999703
vn 0.000000 -0.024379 0.999703
vn 0.000000 1.000000 0.000000
vn 0.000000 1.000000 0.000000
vn 0.000000 1.000000 0.000000
vn 0.000000 1.000000 0.000000
vn 0.000000 -0.006096 -0.999981
vn 0.000000 -0.006096 -0.999981
vn 0.000000 -0.006096 -0.999981
vn 0.000000 -0.006096 -0.999981
vn 1.000000 0.000000 0.000000
vn 1.000000 0.000000 0.000000
vn 1.000000 0.000000 0.000000
vn 1.000000 -0.000000 0.000000
vn -1.000000 0.000000 0.000000
vn -1.000000 0.000000 0.000000
vn -1.000000 0.000000 0.000000
vn -1.000000 0.000000 0.000000
vn 0.000000 -1.000000 0.000000
vn 0.000000 -1.000000 0.000000
vn 0.000000 -1.000000 0.000000
vn 0.000000 -1.000000 0.000000
vn 0.000000 -0.155954 0.987764
vn 0.000000 -0.155954 0.987764
vn 0.000000 -0.155954 0.987764
vn 0.000000 -0.155954 0.987764
vn 0.000000 1.000000 0.000000
vn 0.000000 1.000000 0.000000
vn 0.000000 1.000000 0.000000
vn 0.000000 1.000000 0.000000
vn 0.000000 0.025685 -0.999670
vn 0.000000 0.025685 -0.999670
vn 0.000000 0.025685 -0.999670
vn 0.000000 0.025685 -0.999670
vn 0.999605 -0.028105 0.000000
vn 0.999605 -0.028105 0.000000
vn 0.999605 -0.028105 0.000000
vn 0.999605 -0.028105 0.000000
vn -0.996789 -0.080074 0.000000
vn -0.996789 -0.080074 0.000000
vn -0.996789 -0.080074 0.000000
vn -0.996789 -0.080074 0.000000
vn 0.000000 0.082875 0.996560
vn 0.000000 0.082875 0.996560
vn 0.000000 0.082875 0.996560
vn 0.000000 0.082875 0.996560
vn 0.997699 0.005619 0.067569
vn 0.998097 -0.011896 0.060506
vn 0.998097 -0.011896 0.060506
vn 0.998139 -0.029406 0.053421
vn 0.000000 0.482230 -0.876045
vn 0.000000 0.482230 -0.876045
vn 0.000000 0.482230 -0.876045
vn 0.000000 0.482230 -0.876045
vn -0.998139 -0.029406 0.053421
vn -0.998097 -0.011895 0.060506
vn -0.998097 -0.011895 0.060506
vn -0.997699 0.005620 0.067569
vn 0.000000 -1.000000 0.000000
vn 0.000000 -1.000000 0.000000
vn 0.000000 -1.000000 0.000000
vn 0.000000 -1.000000 -0.000000
vn 0.000000 0.978702 0.205288
vn 0.000000 0.978702 0.205288
vn 0.000000 0.978702 0.205288
vn 0.000000 0.978702 0.205288
vn -0.261038 -0.702517 0.662065
vn -0.261038 -0.702517 0.662065
vn -0.261038 -0.702517 0.662065
vn -0.261038 -0.702517 0.662065
vn -0.559403 0.610608 0.560559
vn -0.559402 0.610608 0.560560
vn -0.559402 0.610608 0.560560
vn -0.559401 0.610607 0.560561
vn 0.261037 0.702516 -0.662066
vn 0.261038 0.702516 -0.662065
vn 0.261038 0.702516 -0.662065
vn 0.261038 0.702517 -0.662064
vn 0.559402 -0.610608 -0.560559
vn 0.559402 -0.610608 -0.560560
vn 0.559402 -0.610608 -0.560560
vn 0.559402 -0.610607 -0.560561
vn -0.810341 -0.250880 -0.529535
vn -0.810341 -0.250880 -0.529535
vn -0.810341 -0.250880 -0.529535
vn -0.810340 -0.250880 -0.529536
vn 0.810341 0.250880 0.529535
vn 0.810340 0.250880 0.529535
vn 0.810340 0.250880 0.529535
vn 0.810340 0.250880 0.529536
vn -0.505957 0.821243 0.263755
vn -0.503574 0.819863 0.272467
vn -0.503574 0.819863 0.272467
vn -0.501149 0.818414 0.281156
vn 0.651760 0.580300 -0.488325
vn 0.653701 0.580542 -0.485435
vn 0.653701 0.580542 -0.485435
vn 0.655633 0.580777 -0.482539
vn 0.526674 -0.688131 -0.499089
vn 0.526674 -0.688131 -0.499090
vn 0.526674 -0.688131 -0.499090
vn 0.526674 -0.688131 -0.499090
vn -0.606203 -0.446525 0.658129
vn -0.657980 -0.457226 0.598336
vn -0.657980 -0.457226 0.598336
vn -0.705566 -0.465015 0.534732
vn -0.732329 0.157508 -0.662484
vn -0.742998 0.143605 -0.653706
vn -0.742998 0.143605 -0.653706
vn -0.753382 0.129647 -0.644676
vn 0.639707 0.028742 0.768081
vn 0.672462 0.071414 0.736678
vn 0.672462 0.071414 0.736678
vn 0.702608 0.113809 0.702417
vn 0.381974 0.098407 0.918919
vn 0.381970 0.098406 0.918921
vn 0.381970 0.098406 0.918921
vn 0.381966 0.098405 0.918922
vn 0.134802 0.978161 -0.158207
vn 0.133566 0.978207 -0.158971
vn 0.133566 0.978207 -0.158971
vn 0.132329 0.978250 -0.159736
vn -0.032006 -0.156732 -0.987122
vn -0.032006 -0.156733 -0.987122
vn -0.032006 -0.156733 -0.987122
vn -0.032006 -0.156733 -0.987122
vn -0.134801 -0.978161 0.158207
vn -0.133565 -0.978206 0.158973
vn -0.133565 -0.978206 0.158973
vn -0.132329 -0.978250 0.159740
vn -0.936840 0.175695 0.302428
vn -0.936840 0.175694 0.302428
vn -0.936840 0.175694 0.302428
vn -0.936840 0.175694 0.302428
vn 0.895883 -0.186611 -0.403200
vn 0.895884 -0.186612 -0.403197
vn 0.895884 -0.186612 -0.403197
vn 0.895885 -0.186614 -0.403194
vn 0.108862 0.181968 0.977260
vn 0.108863 0.181972 0.977259
vn 0.108863 0.181972 0.977259
vn 0.108864 0.181976 0.977258
vn 0.305211 0.929498 -0.207076
vn 0.305212 0.929499 -0.207069
vn 0.305212 0.929499 -0.207069
vn 0.305213 0.929500 -0.207062
vn -0.108858 -0.181967 -0.977260
vn -0.108861 -0.181969 -0.977260
vn -0.108861 -0.181969 -0.977260
vn -0.108864 -0.181972 -0.977259
vn -0.305212 -0.929498 0.207076
vn -0.305212 -0.929498 0.207075
vn -0.305212 -0.929498 0.207075
vn -0.305212 -0.929498 0.207074
vn -0.946040 0.320819 0.045650
vn -0.946041 0.320815 0.045653
vn -0.946041 0.320815 0.045653
vn -0.946042 0.320812 0.045656
vn 0.946040 -0.320819 -0.045654
vn 0.946041 -0.320817 -0.045651
vn 0.946041 -0.320817 -0.045651
vn 0.946042 -0.320814 -0.045648
vn 0.108863 0.181973 0.977259
vn 0.108865 0.181973 0.977259
vn 0.108865 0.181973 0.977259
vn 0.108867 0.181973 0.977259
vn 0.442298 0.871562 -0.211547
vn 0.442301 0.871560 -0.211552
vn 0.442301 0.871560 -0.211552
vn 0.442305 0.871557 -0.211556
vn -0.108863 -0.181971 -0.977259
vn -0.108860 -0.181969 -0.977260
vn -0.108860 -0.181969 -0.977260
vn -0.108858 -0.181967 -0.977261
vn -0.442299 -0.871558 0.211563
vn -0.442298 -0.871558 0.211566
vn -0.442298 -0.871558 0.211566
vn -0.442296 -0.871558 0.211569
vn -0.890237 0.455271 0.014401
vn -0.890238 0.455269 0.014398
vn -0.890238 0.455269 0.014398
vn -0.890239 0.455267 0.014394
vn 0.890236 -0.455273 -0.014382
vn 0.890237 -0.455272 -0.014380
vn 0.890237 -0.455272 -0.014380
vn 0.890237 -0.455270 -0.014378
vn 0.108858 0.181970 0.977260
vn 0.108860 0.181971 0.977259
vn 0.108860 0.181971 0.977259
vn 0.108862 0.181973 0.977259
vn 0.531922 0.819854 -0.211893
vn 0.531920 0.819852 -0.211907
vn 0.531920 0.819852 -0.211907
vn 0.531918 0.819849 -0.211922
vn -0.108858 -0.181969 -0.977260
vn -0.108861 -0.181970 -0.977260
vn -0.108861 -0.181970 -0.977260
vn -0.108864 -0.181971 -0.977259
vn -0.531916 -0.819849 0.211926
vn -0.531920 -0.819849 0.211917
vn -0.531920 -0.819849 0.211917
vn -0.531923 -0.819849 0.211909
vn -0.839765 0.542897 -0.007545
vn -0.839766 0.542897 -0.007553
vn -0.839766 0.542897 -0.007553
vn -0.839766 0.542896 -0.007561
vn 0.839765 -0.542897 0.007553
vn 0.839768 -0.542894 0.007544
vn 0.839768 -0.542894 0.007544
vn 0.839770 -0.542891 0.007536
vn 0.168586 0.161620 0.972347
vn 0.168587 0.161620 0.972346
vn 0.168587 0.161620 0.972346
vn 0.168588 0.161620 0.972346
vn 0.297018 0.932506 -0.205458
vn 0.297018 0.932508 -0.205449
vn 0.297018 0.932508 -0.205449
vn 0.297018 0.932510 -0.205440
vn -0.168579 -0.161619 -0.972348
vn -0.168583 -0.161619 -0.972347
vn -0.168583 -0.161619 -0.972347
vn -0.168586 -0.161618 -0.972347
vn -0.297018 -0.932510 0.205440
vn -0.297018 -0.932508 0.205451
vn -0.297018 -0.932508 0.205451
vn -0.297019 -0.932505 0.205461
vn -0.938371 0.333788 0.089692
vn -0.938372 0.333784 0.089700
vn -0.938372 0.333784 0.089700
vn -0.938373 0.333779 0.089708
vn 0.938372 -0.333790 -0.089684
vn 0.938373 -0.333783 -0.089692
vn 0.938373 -0.333783 -0.089692
vn 0.938375 -0.333777 -0.089700
vn 0.168588 0.161616 0.972347
vn 0.168584 0.161618 0.972347
vn 0.168584 0.161618 0.972347
vn 0.168580 0.161619 0.972348
vn 0.420651 0.881133 -0.216002
vn 0.420651 0.881131 -0.216013
vn 0.420651 0.881131 -0.216013
vn 0.420651 0.881128 -0.216024
vn -0.168579 -0.161616 -0.972348
vn -0.168582 -0.161618 -0.972348
vn -0.168582 -0.161618 -0.972348
vn -0.168584 -0.161619 -0.972347
vn -0.420654 -0.881134 0.215994
vn -0.420653 -0.881132 0.216003
vn -0.420653 -0.881132 0.216003
vn -0.420652 -0.881131 0.216011
vn -0.874617 0.481742 0.054502
vn -0.874618 0.481739 0.054500
vn -0.874618 0.481739 0.054500
vn -0.874620 0.481737 0.054498
vn 0.874617 -0.481741 -0.054498
vn 0.874619 -0.481739 -0.054496
vn 0.874619 -0.481739 -0.054496
vn 0.874621 -0.481736 -0.054494
vn 0.147625 0.176425 0.973181
vn 0.147622 0.176423 0.973182
vn 0.147622 0.176423 0.973182
vn 0.147620 0.176421 0.973182
vn 0.587260 0.777668 -0.224408
vn 0.587263 0.777668 -0.224397
vn 0.587263 0.777668 -0.224397
vn 0.587267 0.777669 -0.224387
vn -0.147619 -0.176422 -0.973182
vn -0.147620 -0.176423 -0.973182
vn -0.147620 -0.176423 -0.973182
vn -0.147622 -0.176423 -0.973182
vn -0.587263 -0.777667 0.224402
vn -0.587264 -0.777666 0.224404
vn -0.587264 -0.777666 0.224404
vn -0.587265 -0.777664 0.224407
vn -0.816938 0.575974 0.029418
vn -0.816942 0.575970 0.029416
vn -0.816942 0.575970 0.029416
vn -0.816945 0.575965 0.029414
vn 0.816941 -0.575971 -0.029406
vn 0.816943 -0.575968 -0.029414
vn 0.816943 -0.575968 -0.029414
vn 0.816945 -0.575965 -0.029422
vn 0.220115 0.162017 0.961925
vn 0.220113 0.162016 0.961926
vn 0.220113 0.162016 0.961926
vn 0.220111 0.162015 0.961926
vn 0.281307 0.934078 -0.219918
vn 0.281307 0.934077 -0.219924
vn 0.281307 0.934077 -0.219924
vn 0.281307 0.934076 -0.219930
vn -0.220111 -0.162012 -0.961927
vn -0.220109 -0.162011 -0.961928
vn -0.220109 -0.162011 -0.961928
vn -0.220107 -0.162009 -0.961928
vn -0.281304 -0.934077 0.219930
vn -0.281304 -0.934074 0.219940
vn -0.281304 -0.934074 0.219940
vn -0.281303 -0.934072 0.219950
vn -0.932979 0.337780 0.124317
vn -0.932980 0.337777 0.124321
vn -0.932980 0.337777 0.124321
vn -0.932980 0.337773 0.124326
vn 0.932977 -0.337782 -0.124327
vn 0.932977 -0.337782 -0.124329
vn 0.932977 -0.337782 -0.124329
vn 0.932976 -0.337782 -0.124331
vn 0.220110 0.162012 0.961927
vn 0.220112 0.162015 0.961926
vn 0.220112 0.162015 0.961926
vn 0.220114 0.162019 0.961925
vn 0.395003 0.888312 -0.234253
vn 0.395002 0.888306 -0.234276
vn 0.395002 0.888306 -0.234276
vn 0.395000 0.888301 -0.234300
vn -0.220102 -0.162010 -0.961929
vn -0.220112 -0.162013 -0.961927
vn -0.220112 -0.162013 -0.961927
vn -0.220121 -0.162016 -0.961924
vn -0.395003 -0.888304 0.234285
vn -0.395002 -0.888306 0.234277
vn -0.395002 -0.888306 0.234277
vn -0.395002 -0.888308 0.234268
vn -0.863555 0.497457 0.082517
vn -0.863556 0.497456 0.082517
vn -0.863556 0.497456 0.082517
vn -0.863557 0.497454 0.082517
vn 0.863561 -0.497446 -0.082524
vn 0.863559 -0.497450 -0.082518
vn 0.863559 -0.497450 -0.082518
vn 0.863558 -0.497453 -0.082513
vn 0.201149 0.176295 0.963566
vn 0.201144 0.176294 0.963567
vn 0.201144 0.176294 0.963567
vn 0.201139 0.176293 0.963568
vn 0.551670 0.796056 -0.248909
vn 0.551668 0.796059 -0.248902
vn 0.551668 0.796059 -0.248902
vn 0.551665 0.796063 -0.248896
vn -0.201139 -0.176295 -0.963568
vn -0.201141 -0.176294 -0.963568
vn -0.201141 -0.176294 -0.963568
vn -0.201142 -0.176293 -0.963568
vn -0.551672 -0.796059 0.248894
vn -0.551671 -0.796056 0.248906
vn -0.551671 -0.796056 0.248906
vn -0.551670 -0.796053 0.248917
vn -0.800467 0.597070 0.052539
vn -0.800466 0.597071 0.052540
vn -0.800466 0.597071 0.052540
vn -0.800464 0.597073 0.052541
vn 0.800466 -0.597070 -0.052542
vn 0.800467 -0.597069 -0.052540
vn 0.800467 -0.597069 -0.052540
vn 0.800468 -0.597068 -0.052538
vn 0.239340 0.142276 0.960455
vn 0.239338 0.142276 0.960456
vn 0.239338 0.142276 0.960456
vn 0.239336 0.142277 0.960456
vn 0.262547 0.943119 -0.203949
vn 0.262546 0.943116 -0.203968
vn 0.262546 0.943116 -0.203968
vn 0.262545 0.943112 -0.203987
vn -0.239333 -0.142273 -0.960457
vn -0.239337 -0.142276 -0.960456
vn -0.239337 -0.142276 -0.960456
vn -0.239341 -0.142279 -0.960454
vn -0.262546 -0.943116 0.203965
vn -0.262545 -0.943115 0.203972
vn -0.262545 -0.943115 0.203972
vn -0.262544 -0.943113 0.203979
vn -0.934964 0.313178 0.166617
vn -0.934967 0.313172 0.166615
vn -0.934967 0.313172 0.166615
vn -0.934969 0.313166 0.166613
vn 0.934969 -0.313163 -0.166621
vn 0.934968 -0.313165 -0.166624
vn 0.934968 -0.313165 -0.166624
vn 0.934966 -0.313167 -0.166626
vn 0.235778 0.144184 0.961051
vn 0.235781 0.144185 0.961051
vn 0.235781 0.144185 0.961051
vn 0.235784 0.144186 0.961050
vn 0.393894 0.890907 -0.226124
vn 0.393894 0.890907 -0.226125
vn 0.393894 0.890907 -0.226125
vn 0.393894 0.890906 -0.226126
vn -0.235777 -0.144184 -0.961051
vn -0.235778 -0.144186 -0.961051
vn -0.235778 -0.144186 -0.961051
vn -0.235779 -0.144187 -0.961051
vn -0.393894 -0.890906 0.226128
vn -0.393894 -0.890906 0.226128
vn -0.393894 -0.890906 0.226128
vn -0.393894 -0.890906 0.226127
vn -0.875748 0.464961 0.129911
vn -0.875748 0.464963 0.129899
vn -0.875748 0.464963 0.129899
vn -0.875749 0.464966 0.129888
vn 0.875748 -0.464965 -0.129895
vn 0.875746 -0.464967 -0.129902
vn 0.875746 -0.464967 -0.129902
vn 0.875744 -0.464969 -0.129909
vn 0.208650 0.163267 0.964266
vn 0.208651 0.163268 0.964266
vn 0.208651 0.163268 0.964266
vn 0.208651 0.163270 0.964265
vn 0.546912 0.799829 -0.247308
vn 0.546912 0.799826 -0.247317
vn 0.546912 0.799826 -0.247317
vn 0.546911 0.799824 -0.247325
vn -0.208657 -0.163270 -0.964264
vn -0.208656 -0.163269 -0.964265
vn -0.208656 -0.163269 -0.964265
vn -0.208655 -0.163268 -0.964265
vn -0.546910 -0.799822 0.247336
vn -0.546909 -0.799826 0.247322
vn -0.546909 -0.799826 0.247322
vn -0.546909 -0.799831 0.247308
vn -0.820909 0.561768 0.102592
vn -0.820909 0.561771 0.102575
vn -0.820909 0.561771 0.102575
vn -0.820909 0.561775 0.102558
vn 0.820911 -0.561771 -0.102558
vn 0.820911 -0.561770 -0.102571
vn 0.820911 -0.561770 -0.102571
vn 0.820910 -0.561768 -0.102584
vn -0.590533 0.656729 0.469018
vn -0.590525 0.656732 0.469024
vn -0.590525 0.656732 0.469024
vn -0.590517 0.656735 0.469030
vn 0.623735 0.002639 0.781631
vn 0.623739 0.002641 0.781628
vn 0.623739 0.002641 0.781628
vn 0.623744 0.002642 0.781625
vn 0.590531 -0.656728 -0.469021
vn 0.590530 -0.656727 -0.469024
vn 0.590530 -0.656727 -0.469024
vn 0.590529 -0.656726 -0.469028
vn -0.623742 -0.002639 -0.781626
vn -0.623744 -0.002641 -0.781624
vn -0.623744 -0.002641 -0.781624
vn -0.623746 -0.002642 -0.781622
vn 0.512084 0.754122 -0.411182
vn 0.512082 0.754122 -0.411184
vn 0.512082 0.754122 -0.411184
vn 0.512080 0.754122 -0.411185
vn -0.512079 -0.754124 0.411185
vn -0.512079 -0.754123 0.411186
vn -0.512079 -0.754123 0.411186
vn -0.512079 -0.754122 0.411188
vn -0.732209 0.633526 0.250028
vn -0.732209 0.633526 0.250028
vn -0.732209 0.633526 0.250028
vn -0.732210 0.633526 0.250029
vn 0.449060 0.173036 0.876586
vn 0.449058 0.173036 0.876587
vn 0.449058 0.173036 0.876587
vn 0.449057 0.173036 0.876588
vn 0.732207 -0.633528 -0.250030
vn 0.732205 -0.633529 -0.250033
vn 0.732205 -0.633529 -0.250033
vn 0.732203 -0.633530 -0.250036
vn -0.449052 -0.173037 -0.876590
vn -0.449055 -0.173036 -0.876589
vn -0.449055 -0.173036 -0.876589
vn -0.449057 -0.173036 -0.876588
vn 0.512081 0.754123 -0.411183
vn 0.512082 0.754123 -0.411182
vn 0.512082 0.754123 -0.411182
vn 0.512084 0.754123 -0.411181
vn -0.512074 -0.754120 0.411197
vn -0.512076 -0.754119 0.411196
vn -0.512076 -0.754119 0.411196
vn -0.512078 -0.754118 0.411195
vn 0.000000 -1.000000 0.000000
vn 0.000000 -1.000000 0.000000
vn 0.000000 -1.000000 0.000000
vn 0.000000 -1.000000 0.000000
vn 0.000000 -0.024379 0.999703
vn 0.000000 -0.024379 0.999703
vn 0.000000 -0.024379 0.999703
vn 0.000000 -0.024379 0.999703
vn 0.000000 1.000000 0.000000
vn 0.000000 1.000000 0.000000
vn 0.000000 1.000000 0.000000
vn 0.000000 1.000000 0.000000
vn 0.000000 -0.006096 -0.999981
vn 0.000000 -0.006096 -0.999981
vn 0.000000 -0.006096 -0.999981
vn 0.000000 -0.006096 -0.999981
vn -1.000000 0.000000 0.000000
vn -1.000000 0.000000 0.000000
vn -1.000000 0.000000 0.000000
vn -1.000000 0.000000 0.000000
vn 1.000000 -0.000000 0.000000
vn 1.000000 -0.000000 0.000000
vn 1.000000 -0.000000 0.000000
vn 1.000000 0.000000 0.000000
vn 0.000000 -1.000000 0.000000
vn 0.000000 -1.000000 0.000000
vn 0.000000 -1.000000 0.000000
vn 0.000000 -1.000000 0.000000
vn 0.000000 -0.155954 0.987764
vn 0.000000 -0.155954 0.987764
vn 0.000000 -0.155954 0.987764
vn 0.000000 -0.155954 0.987764
vn 0.000000 1.000000 0.000000
vn 0.000000 1.000000 0.000000
vn 0.000000 1.000000 0.000000
vn 0.000000 1.000000 0.000000
vn 0.000000 0.025685 -0.999670
vn 0.000000 0.025685 -0.999670
vn 0.000000 0.025685 -0.999670
vn 0.000000 0.025685 -0.999670
vn -0.999605 -0.028105 0.000000
vn -0.999605 -0.028105 0.000000
vn -0.999605 -0.028105 0.000000
vn -0.999605 -0.028105 0.000000
vn 0.996789 -0.080074 0.000000
vn 0.996789 -0.080074 0.000000
vn 0.996789 -0.080074 0.000000
vn 0.996789 -0.080074 0.000000
vn 0.000000 0.082875 0.996560
vn 0.000000 0.082875 0.996560
vn 0.000000 0.082875 0.996560
vn 0.000000 0.082875 0.996560
vn -0.997699 0.005619 0.067569
vn -0.998097 -0.011896 0.060506
vn -0.998097 -0.011896 0.060506
vn -0.998139 -0.029406 0.053421
vn 0.000000 0.482230 -0.876045
vn 0.000000 0.482230 -0.876045
vn 0.000000 0.482230 -0.876045
vn 0.000000 0.482230 -0.876045
vn 0.997699 0.005619 0.067569
vn 0.998097 -0.011896 0.060506
vn 0.998097 -0.011896 0.060506
vn 0.998139 -0.029406 0.053421
vn 0.000000 -1.000000 0.000000
vn 0.000000 -1.000000 0.000000
vn 0.000000 -1.000000 0.000000
vn 0.000000 -1.000000 0.000000
vn 0.000000 0.978702 0.205288
vn 0.000000 0.978702 0.205288
vn 0.000000 0.978702 0.205288
vn 0.000000 0.978702 0.205288
vn 0.411972 -0.910775 0.027706
vn 0.411972 -0.910775 0.027705
vn 0.411972 -0.910775 0.027705
vn 0.411972 -0.910775 0.027704
vn -0.043934 0.010515 0.998979
vn -0.043934 0.010515 0.998979
vn -0.043934 0.010515 0.998979
vn -0.043934 0.010515 0.998979
vn -0.411973 0.910775 -0.027708
vn -0.411972 0.910775 -0.027706
vn -0.411972 0.910775 -0.027706
vn -0.411972 0.910775 -0.027704
vn 0.043934 -0.010515 -0.998979
vn 0.043934 -0.010515 -0.998979
vn 0.043934 -0.010515 -0.998979
vn 0.043934 -0.010515 -0.998979
vn 0.910137 0.412768 0.035682
vn 0.910137 0.412768 0.035681
vn 0.910137 0.412768 0.035681
vn 0.910137 0.412768 0.035681
vn -0.910137 -0.412768 -0.035682
vn -0.910137 -0.412768 -0.035682
vn -0.910137 -0.412768 -0.035682
vn -0.910137 -0.412768 -0.035683
vn 0.101238 -0.994805 -0.010683
vn 0.101238 -0.994805 -0.010683
vn 0.101238 -0.994805 -0.010683
vn 0.101238 -0.994805 -0.010683
vn -0.783469 -0.086340 0.615404
vn -0.783470 -0.086340 0.615403
vn -0.783470 -0.086340 0.615403
vn -0.783471 -0.086340 0.615401
vn -0.101238 0.994805 0.010686
vn -0.101238 0.994805 0.010684
vn -0.101238 0.994805 0.010684
vn -0.101238 0.994805 0.010681
vn 0.783472 0.086340 -0.615400
vn 0.783471 0.086340 -0.615402
vn 0.783471 0.086340 -0.615402
vn 0.783469 0.086340 -0.615404
vn 0.613129 0.053932 0.788139
vn 0.613128 0.053932 0.788140
vn 0.613128 0.053932 0.788140
vn 0.613127 0.053932 0.788141
vn -0.613126 -0.053932 -0.788142
vn -0.613127 -0.053932 -0.788141
vn -0.613127 -0.053932 -0.788141
vn -0.613127 -0.053932 -0.788141
s 1
g polySurface7
usemtl phong1SG
f 1/1/1 2/2/2 3/4/3
f 3/4/3 2/2/2 4/3/4
s 2
f 3/4/5 4/3/6 5/6/7
f 5/6/7 4/3/6 6/5/8
s 3
f 5/6/9 6/5/10 7/8/11
f 7/8/11 6/5/10 8/7/12
s 4
f 8/7/13 2/2/14 7/8/15
f 7/8/15 2/2/14 1/1/16
s 5
f 2/2/17 8/7/18 4/3/19
f 4/3/19 8/7/18 6/5/20
s 6
f 7/8/21 1/1/22 5/6/23
f 5/6/23 1/1/22 3/4/24
s 7
f 9/9/25 10/10/26 11/12/27
f 11/12/27 10/10/26 12/11/28
s 8
f 12/11/29 14/13/30 11/12/31
f 11/12/31 14/13/30 13/14/32
s 9
f 17/15/33 18/16/34 20/18/35
f 20/18/35 18/16/34 19/17/36
s 10
f 15/19/37 16/20/38 9/9/39
f 9/9/39 16/20/38 10/10/40
s 11
f 10/10/41 16/20/42 12/11/43
f 12/11/43 16/20/42 14/13/44
s 12
f 9/9/45 11/12/46 15/19/47
f 15/19/47 11/12/46 13/14/48
s 13
f 13/14/49 14/13/50 17/15/51
f 17/15/51 14/13/50 18/16/52
s 14
f 14/13/53 16/20/54 18/16/55
f 18/16/55 16/20/54 19/17/56
s 15
f 16/20/57 15/19/58 19/17/59
f 19/17/59 15/19/58 20/18/60
s 16
f 13/14/61 17/15/62 15/19/63
f 15/19/63 17/15/62 20/18/64
s 17
f 21/21/65 22/22/66 23/24/67
f 23/24/67 22/22/66 24/23/68
s 18
f 23/24/69 24/23/70 25/26/71
f 25/26/71 24/23/70 26/25/72
s 19
f 25/26/73 26/25/74 27/28/75
f 27/28/75 26/25/74 28/27/76
s 20
f 28/27/77 22/22/78 27/28/79
f 27/28/79 22/22/78 21/21/80
s 21
f 22/22/81 28/27/82 24/23/83
f 24/23/83 28/27/82 26/25/84
s 22
f 21/21/85 23/24/86 27/28/87
f 27/28/87 23/24/86 25/26/88
s 23
f 29/29/89 30/30/90 31/32/91
f 31/32/91 30/30/90 32/31/92
s 24
f 31/32/93 32/31/94 33/34/95
f 33/34/95 32/31/94 34/33/96
s 25
f 34/33/97 36/35/98 33/34/99
f 33/34/99 36/35/98 35/36/100
s 26
f 36/35/101 30/30/102 35/36/103
f 35/36/103 30/30/102 29/29/104
s 27
f 36/35/105 34/33/106 30/30/107
f 30/30/107 34/33/106 32/31/108
s 28
f 35/36/109 29/29/110 33/34/111
f 33/34/111 29/29/110 31/32/112
s 29
f 37/37/113 38/38/114 39/40/115
f 39/40/115 38/38/114 40/39/116
s 30
f 39/40/117 40/39/118 41/42/119
f 41/42/119 40/39/118 42/41/120
s 31
f 41/42/121 42/41/122 43/44/123
f 43/44/123 42/41/122 44/43/124
s 32
f 44/43/125 38/38/126 43/44/127
f 43/44/127 38/38/126 37/37/128
s 33
f 38/38/129 44/43/130 40/39/131
f 40/39/131 44/43/130 42/41/132
s 34
f 37/37/133 39/40/134 43/44/135
f 43/44/135 39/40/134 41/42/136
s 35
f 45/45/137 46/46/138 47/48/139
f 47/48/139 46/46/138 48/47/140
s 36
f 47/48/141 48/47/142 49/50/143
f 49/50/143 48/47/142 50/49/144
s 37
f 49/50/145 50/49/146 51/52/147
f 51/52/147 50/49/146 52/51/148
s 38
f 51/52/149 52/51/150 45/45/151
f 45/45/151 52/51/150 46/46/152
s 39
f 46/46/153 52/51/154 48/47/155
f 48/47/155 52/51/154 50/49/156
s 40
f 51/52/157 45/45/158 49/50/159
f 49/50/159 45/45/158 47/48/160
s 41
f 53/53/161 54/54/162 55/56/163
f 55/56/163 54/54/162 56/55/164
s 42
f 55/56/165 56/55/166 57/58/167
f 57/58/167 56/55/166 58/57/168
s 43
f 57/58/169 58/57/170 59/60/171
f 59/60/171 58/57/170 60/59/172
s 44
f 59/60/173 60/59/174 53/53/175
f 53/53/175 60/59/174 54/54/176
s 45
f 54/54/177 60/59/178 56/55/179
f 56/55/179 60/59/178 58/57/180
s 46
f 59/60/181 53/53/182 57/58/183
f 57/58/183 53/53/182 55/56/184
s 47
f 61/61/185 62/62/186 63/64/187
f 63/64/187 62/62/186 64/63/188
s 48
f 63/64/189 64/63/190 65/66/191
f 65/66/191 64/63/190 66/65/192
s 49
f 65/66/193 66/65/194 67/68/195
f 67/68/195 66/65/194 68/67/196
s 50
f 67/68/197 68/67/198 61/61/199
f 61/61/199 68/67/198 62/62/200
s 51
f 62/62/201 68/67/202 64/63/203
f 64/63/203 68/67/202 66/65/204
s 52
f 67/68/205 61/61/206 65/66/207
f 65/66/207 61/61/206 63/64/208
s 53
f 70/70/209 72/71/210 69/69/211
f 69/69/211 72/71/210 71/72/212
s 54
f 72/71/213 74/73/214 71/72/215
f 71/72/215 74/73/214 73/74/216
s 55
f 73/74/217 74/73/218 75/76/219
f 75/76/219 74/73/218 76/75/220
s 56
f 75/76/221 76/75/222 69/69/223
f 69/69/223 76/75/222 70/70/224
s 57
f 70/70/225 76/75/226 72/71/227
f 72/71/227 76/75/226 74/73/228
s 58
f 69/69/229 71/72/230 75/76/231
f 75/76/231 71/72/230 73/74/232
s 59
f 78/78/233 80/79/234 77/77/235
f 77/77/235 80/79/234 79/80/236
s 60
f 80/79/237 82/81/238 79/80/239
f 79/80/239 82/81/238 81/82/240
s 61
f 81/82/241 82/81/242 83/84/243
f 83/84/243 82/81/242 84/83/244
s 62
f 83/84/245 84/83/246 77/77/247
f 77/77/247 84/83/246 78/78/248
s 63
f 78/78/249 84/83/250 80/79/251
f 80/79/251 84/83/250 82/81/252
s 64
f 77/77/253 79/80/254 83/84/255
f 83/84/255 79/80/254 81/82/256
s 65
f 85/85/257 86/86/258 87/88/259
f 87/88/259 86/86/258 88/87/260
s 66
f 87/88/261 88/87/262 89/90/263
f 89/90/263 88/87/262 90/89/264
s 67
f 90/89/265 92/91/266 89/90/267
f 89/90/267 92/91/266 91/92/268
s 68
f 92/91/269 86/86/270 91/92/271
f 91/92/271 86/86/270 85/85/272
s 69
f 86/86/273 92/91/274 88/87/275
f 88/87/275 92/91/274 90/89/276
s 70
f 85/85/277 87/88/278 91/92/279
f 91/92/279 87/88/278 89/90/280
s 71
f 94/94/281 96/95/282 93/93/283
f 93/93/283 96/95/282 95/96/284
s 72
f 96/95/285 98/97/286 95/96/287
f 95/96/287 98/97/286 97/98/288
s 73
f 97/98/289 98/97/290 99/100/291
f 99/100/291 98/97/290 100/99/292
s 74
f 99/100/293 100/99/294 93/93/295
f 93/93/295 100/99/294 94/94/296
s 75
f 94/94/297 100/99/298 96/95/299
f 96/95/299 100/99/298 98/97/300
s 76
f 93/93/301 95/96/302 99/100/303
f 99/100/303 95/96/302 97/98/304
s 77
f 102/102/305 104/103/306 101/101/307
f 101/101/307 104/103/306 103/104/308
s 78
f 104/103/309 106/105/310 103/104/311
f 103/104/311 106/105/310 105/106/312
s 79
f 105/106/313 106/105/314 107/108/315
f 107/108/315 106/105/314 108/107/316
s 80
f 107/108/317 108/107/318 101/101/319
f 101/101/319 108/107/318 102/102/320
s 81
f 102/102/321 108/107/322 104/103/323
f 104/103/323 108/107/322 106/105/324
s 82
f 101/101/325 103/104/326 107/108/327
f 107/108/327 103/104/326 105/106/328
s 83
f 110/110/329 112/111/330 109/109/331
f 109/109/331 112/111/330 111/112/332
s 84
f 112/111/333 114/113/334 111/112/335
f 111/112/335 114/113/334 113/114/336
s 85
f 113/114/337 114/113/338 115/116/339
f 115/116/339 114/113/338 116/115/340
s 86
f 115/116/341 116/115/342 109/109/343
f 109/109/343 116/115/342 110/110/344
s 87
f 110/110/345 116/115/346 112/111/347
f 112/111/347 116/115/346 114/113/348
s 88
f 109/109/349 111/112/350 115/116/351
f 115/116/351 111/112/350 113/114/352
s 89
f 118/118/353 120/119/354 117/117/355
f 117/117/355 120/119/354 119/120/356
s 90
f 120/119/357 122/121/358 119/120/359
f 119/120/359 122/121/358 121/122/360
s 91
f 121/122/361 122/121/362 123/124/363
f 123/124/363 122/121/362 124/123/364
s 92
f 123/124/365 124/123/366 117/117/367
f 117/117/367 124/123/366 118/118/368
s 93
f 118/118/369 124/123/370 120/119/371
f 120/119/371 124/123/370 122/121/372
s 94
f 117/117/373 119/120/374 123/124/375
f 123/124/375 119/120/374 121/122/376
s 95
f 126/126/377 128/127/378 125/125/379
f 125/125/379 128/127/378 127/128/380
s 96
f 128/127/381 130/129/382 127/128/383
f 127/128/383 130/129/382 129/130/384
s 97
f 129/130/385 130/129/386 131/132/387
f 131/132/387 130/129/386 132/131/388
s 98
f 131/132/389 132/131/390 125/125/391
f 125/125/391 132/131/390 126/126/392
s 99
f 126/126/393 132/131/394 128/127/395
f 128/127/395 132/131/394 130/129/396
s 100
f 125/125/397 127/128/398 131/132/399
f 131/132/399 127/128/398 129/130/400
s 101
f 133/133/401 134/134/402 135/136/403
f 135/136/403 134/134/402 136/135/404
s 102
f 135/136/405 136/135/406 137/138/407
f 137/138/407 136/135/406 138/137/408
s 103
f 138/137/409 140/139/410 137/138/411
f 137/138/411 140/139/410 139/140/412
s 104
f 140/139/413 134/134/414 139/140/415
f 139/140/415 134/134/414 133/133/416
s 105
f 134/134/417 140/139/418 136/135/419
f 136/135/419 140/139/418 138/137/420
s 106
f 133/133/421 135/136/422 139/140/423
f 139/140/423 135/136/422 137/138/424
s 107
f 141/141/425 142/142/426 143/144/427
f 143/144/427 142/142/426 144/143/428
s 108
f 143/144/429 144/143/430 145/146/431
f 145/146/431 144/143/430 146/145/432
s 109
f 145/146/433 146/145/434 147/148/435
f 147/148/435 146/145/434 148/147/436
s 110
f 147/148/437 148/147/438 141/141/439
f 141/141/439 148/147/438 142/142/440
s 111
f 142/142/441 148/147/442 144/143/443
f 144/143/443 148/147/442 146/145/444
s 112
f 147/148/445 141/141/446 145/146/447
f 145/146/447 141/141/446 143/144/448
s 113
f 149/149/449 150/150/450 151/152/451
f 151/152/451 150/150/450 152/151/452
s 114
f 151/152/453 152/151/454 153/154/455
f 153/154/455 152/151/454 154/153/456
s 115
f 153/154/457 154/153/458 155/156/459
f 155/156/459 154/153/458 156/155/460
s 116
f 155/156/461 156/155/462 149/149/463
f 149/149/463 156/155/462 150/150/464
s 117
f 150/150/465 156/155/466 152/151/467
f 152/151/467 156/155/466 154/153/468
s 118
f 155/156/469 149/149/470 153/154/471
f 153/154/471 149/149/470 151/152/472
s 119
f 157/157/473 158/158/474 159/160/475
f 159/160/475 158/158/474 160/159/476
s 120
f 159/160/477 160/159/478 161/162/479
f 161/162/479 160/159/478 162/161/480
s 121
f 161/162/481 162/161/482 163/164/483
f 163/164/483 162/161/482 164/163/484
s 122
f 163/164/485 164/163/486 157/157/487
f 157/157/487 164/163/486 158/158/488
s 123
f 158/158/489 164/163/490 160/159/491
f 160/159/491 164/163/490 162/161/492
s 124
f 157/157/493 159/160/494 163/164/495
f 163/164/495 159/160/494 161/162/496
s 125
f 165/165/497 166/166/498 167/168/499
f 167/168/499 166/166/498 168/167/500
s 126
f 168/167/501 170/169/502 167/168/503
f 167/168/503 170/169/502 169/170/504
s 127
f 169/170/505 170/169/506 171/172/507
f 171/172/507 170/169/506 172/171/508
s 128
f 171/172/509 172/171/510 165/165/511
f 165/165/511 172/171/510 166/166/512
s 129
f 166/166/513 172/171/514 168/167/515
f 168/167/515 172/171/514 170/169/516
s 130
f 165/165/517 167/168/518 171/172/519
f 171/172/519 167/168/518 169/170/520
s 131
f 173/173/521 174/174/522 175/176/523
f 175/176/523 174/174/522 176/175/524
s 132
f 175/176/525 176/175/526 177/178/527
f 177/178/527 176/175/526 178/177/528
s 133
f 177/178/529 178/177/530 179/180/531
f 179/180/531 178/177/530 180/179/532
s 134
f 180/179/533 174/174/534 179/180/535
f 179/180/535 174/174/534 173/173/536
s 135
f 174/174/537 180/179/538 176/175/539
f 176/175/539 180/179/538 178/177/540
s 136
f 179/180/541 173/173/542 177/178/543
f 177/178/543 173/173/542 175/176/544
s 137
f 181/181/545 183/182/546 182/184/547
f 182/184/547 183/182/546 184/183/548
s 138
f 183/182/549 185/185/550 184/183/551
f 184/183/551 185/185/550 186/186/552
s 139
f 185/185/553 187/187/554 186/186/555
f 186/186/555 187/187/554 188/188/556
s 140
f 181/181/557 182/184/558 187/187/559
f 187/187/559 182/184/558 188/188/560
s 141
f 182/184/561 184/183/562 188/188/563
f 188/188/563 184/183/562 186/186/564
s 142
f 185/185/565 183/182/566 187/187/567
f 187/187/567 183/182/566 181/181/568
s 143
f 189/189/569 191/190/570 190/192/571
f 190/192/571 191/190/570 192/191/572
s 144
f 191/190/573 193/193/574 192/191/575
f 192/191/575 193/193/574 194/194/576
s 145
f 195/195/577 196/196/578 193/193/579
f 193/193/579 196/196/578 194/194/580
s 146
f 189/189/581 190/192/582 195/195/583
f 195/195/583 190/192/582 196/196/584
s 147
f 192/191/585 194/194/586 190/192/587
f 190/192/587 194/194/586 196/196/588
s 148
f 195/195/589 193/193/590 189/189/591
f 189/189/591 193/193/590 191/190/592
s 149
f 197/197/593 199/198/594 198/200/595
f 198/200/595 199/198/594 200/199/596
s 150
f 199/198/597 201/201/598 200/199/599
f 200/199/599 201/201/598 202/202/600
s 151
f 201/201/601 203/203/602 202/202/603
f 202/202/603 203/203/602 204/204/604
s 152
f 197/197/605 198/200/606 203/203/607
f 203/203/607 198/200/606 204/204/608
s 153
f 198/200/609 200/199/610 204/204/611
f 204/204/611 200/199/610 202/202/612
s 154
f 201/201/613 199/198/614 203/203/615
f 203/203/615 199/198/614 197/197/616
s 155
f 205/205/617 207/206/618 206/208/619
f 206/208/619 207/206/618 208/207/620
s 156
f 207/206/621 209/209/622 208/207/623
f 208/207/623 209/209/622 210/210/624
s 157
f 209/209/625 211/211/626 210/210/627
f 210/210/627 211/211/626 212/212/628
s 158
f 211/211/629 205/205/630 212/212/631
f 212/212/631 205/205/630 206/208/632
s 159
f 206/208/633 208/207/634 212/212/635
f 212/212/635 208/207/634 210/210/636
s 160
f 211/211/637 209/209/638 205/205/639
f 205/205/639 209/209/638 207/206/640
s 161
f 213/213/641 215/214/642 214/216/643
f 214/216/643 215/214/642 216/215/644
s 162
f 215/214/645 217/217/646 216/215/647
f 216/215/647 217/217/646 218/218/648
s 163
f 217/217/649 219/219/650 218/218/651
f 218/218/651 219/219/650 220/220/652
s 164
f 219/219/653 213/213/654 220/220/655
f 220/220/655 213/213/654 214/216/656
s 165
f 214/216/657 216/215/658 220/220/659
f 220/220/659 216/215/658 218/218/660
s 166
f 219/219/661 217/217/662 213/213/663
f 213/213/663 217/217/662 215/214/664
s 167
f 221/221/665 223/222/666 222/224/667
f 222/224/667 223/222/666 224/223/668
s 168
f 223/222/669 225/225/670 224/223/671
f 224/223/671 225/225/670 226/226/672
s 169
f 225/225/673 227/227/674 226/226/675
f 226/226/675 227/227/674 228/228/676
s 170
f 227/227/677 221/221/678 228/228/679
f 228/228/679 221/221/678 222/224/680
s 171
f 222/224/681 224/223/682 228/228/683
f 228/228/683 224/223/682 226/226/684
s 172
f 227/227/685 225/225/686 221/221/687
f 221/221/687 225/225/686 223/222/688
s 173
f 231/230/689 232/231/690 229/229/691
f 229/229/691 232/231/690 230/232/692
s 174
f 233/233/693 234/234/694 231/230/695
f 231/230/695 234/234/694 232/231/696
s 175
f 233/233/697 235/235/698 234/234/699
f 234/234/699 235/235/698 236/236/700
s 176
f 235/235/701 229/229/702 236/236/703
f 236/236/703 229/229/702 230/232/704
s 177
f 230/232/705 232/231/706 236/236/707
f 236/236/707 232/231/706 234/234/708
s 178
f 233/233/709 231/230/710 235/235/711
f 235/235/711 231/230/710 229/229/712
s 179
f 239/238/713 240/239/714 237/237/715
f 237/237/715 240/239/714 238/240/716
s 180
f 241/241/717 242/242/718 239/238/719
f 239/238/719 242/242/718 240/239/720
s 181
f 241/241/721 243/243/722 242/242/723
f 242/242/723 243/243/722 244/244/724
s 182
f 243/243/725 237/237/726 244/244/727
f 244/244/727 237/237/726 238/240/728
s 183
f 238/240/729 240/239/730 244/244/731
f 244/244/731 240/239/730 242/242/732
s 184
f 241/241/733 239/238/734 243/243/735
f 243/243/735 239/238/734 237/237/736
s 185
f 245/245/737 247/246/738 246/248/739
f 246/248/739 247/246/738 248/247/740
s 186
f 247/246/741 249/249/742 248/247/743
f 248/247/743 249/249/742 250/250/744
s 187
f 251/251/745 252/252/746 249/249/747
f 249/249/747 252/252/746 250/250/748
s 188
f 245/245/749 246/248/750 251/251/751
f 251/251/751 246/248/750 252/252/752
s 189
f 246/248/753 248/247/754 252/252/755
f 252/252/755 248/247/754 250/250/756
s 190
f 249/249/757 247/246/758 251/251/759
f 251/251/759 247/246/758 245/245/760
s 191
f 255/254/761 256/255/762 253/253/763
f 253/253/763 256/255/762 254/256/764
s 192
f 257/257/765 258/258/766 255/254/767
f 255/254/767 258/258/766 256/255/768
s 193
f 257/257/769 259/259/770 258/258/771
f 258/258/771 259/259/770 260/260/772
s 194
f 259/259/773 253/253/774 260/260/775
f 260/260/775 253/253/774 254/256/776
s 195
f 254/256/777 256/255/778 260/260/779
f 260/260/779 256/255/778 258/258/780
s 196
f 257/257/781 255/254/782 259/259/783
f 259/259/783 255/254/782 253/253/784
s 197
f 263/262/785 264/263/786 261/261/787
f 261/261/787 264/263/786 262/264/788
s 198
f 265/265/789 266/266/790 263/262/791
f 263/262/791 266/266/790 264/263/792
s 199
f 265/265/793 267/267/794 266/266/795
f 266/266/795 267/267/794 268/268/796
s 200
f 267/267/797 261/261/798 268/268/799
f 268/268/799 261/261/798 262/264/800
s 201
f 262/264/801 264/263/802 268/268/803
f 268/268/803 264/263/802 266/266/804
s 202
f 265/265/805 263/262/806 267/267/807
f 267/267/807 263/262/806 261/261/808
s 203
f 271/270/809 272/271/810 269/269/811
f 269/269/811 272/271/810 270/272/812
s 204
f 273/273/813 274/274/814 271/270/815
f 271/270/815 274/274/814 272/271/816
s 205
f 273/273/817 275/275/818 274/274/819
f 274/274/819 275/275/818 276/276/820
s 206
f 275/275/821 269/269/822 276/276/823
f 276/276/823 269/269/822 270/272/824
s 207
f 270/272/825 272/271/826 276/276/827
f 276/276/827 272/271/826 274/274/828
s 208
f 273/273/829 271/270/830 275/275/831
f 275/275/831 271/270/830 269/269/832
s 209
f 279/278/833 280/279/834 277/277/835
f 277/277/835 280/279/834 278/280/836
s 210
f 281/281/837 282/282/838 279/278/839
f 279/278/839 282/282/838 280/279/840
s 211
f 281/281/841 283/283/842 282/282/843
f 282/282/843 283/283/842 284/284/844
s 212
f 283/283/845 277/277/846 284/284/847
f 284/284/847 277/277/846 278/280/848
s 213
f 278/280/849 280/279/850 284/284/851
f 284/284/851 280/279/850 282/282/852
s 214
f 281/281/853 279/278/854 283/283/855
f 283/283/855 279/278/854 277/277/856
s 215
f 287/286/857 288/287/858 285/285/859
f 285/285/859 288/287/858 286/288/860
s 216
f 289/289/861 290/290/862 287/286/863
f 287/286/863 290/290/862 288/287/864
s 217
f 289/289/865 291/291/866 290/290/867
f 290/290/867 291/291/866 292/292/868
s 218
f 291/291/869 285/285/870 292/292/871
f 292/292/871 285/285/870 286/288/872
s 219
f 286/288/873 288/287/874 292/292/875
f 292/292/875 288/287/874 290/290/876
s 220
f 289/289/877 287/286/878 291/291/879
f 291/291/879 287/286/878 285/285/880
s 221
f 293/293/881 295/294/882 294/296/883
f 294/296/883 295/294/882 296/295/884
s 222
f 295/294/885 297/297/886 296/295/887
f 296/295/887 297/297/886 298/298/888
s 223
f 299/299/889 300/300/890 297/297/891
f 297/297/891 300/300/890 298/298/892
s 224
f 293/293/893 294/296/894 299/299/895
f 299/299/895 294/296/894 300/300/896
s 225
f 294/296/897 296/295/898 300/300/899
f 300/300/899 296/295/898 298/298/900
s 226
f 297/297/901 295/294/902 299/299/903
f 299/299/903 295/294/902 293/293/904
s 227
f 301/301/905 303/302/906 302/304/907
f 302/304/907 303/302/906 304/303/908
s 228
f 303/302/909 305/305/910 304/303/911
f 304/303/911 305/305/910 306/306/912
s 229
f 305/305/913 307/307/914 306/306/915
f 306/306/915 307/307/914 308/308/916
s 230
f 307/307/917 301/301/918 308/308/919
f 308/308/919 301/301/918 302/304/920
s 231
f 302/304/921 304/303/922 308/308/923
f 308/308/923 304/303/922 306/306/924
s 232
f 307/307/925 305/305/926 301/301/927
f 301/301/927 305/305/926 303/302/928
s 233
f 309/309/929 311/310/930 310/312/931
f 310/312/931 311/310/930 312/311/932
s 234
f 311/310/933 313/313/934 312/311/935
f 312/311/935 313/313/934 314/314/936
s 235
f 313/313/937 315/315/938 314/314/939
f 314/314/939 315/315/938 316/316/940
s 236
f 315/315/941 309/309/942 316/316/943
f 316/316/943 309/309/942 310/312/944
s 237
f 310/312/945 312/311/946 316/316/947
f 316/316/947 312/311/946 314/314/948
s 238
f 315/315/949 313/313/950 309/309/951
f 309/309/951 313/313/950 311/310/952
s 239
f 317/317/953 319/318/954 318/320/955
f 318/320/955 319/318/954 320/319/956
s 240
f 319/318/957 321/321/958 320/319/959
f 320/319/959 321/321/958 322/322/960
s 241
f 321/321/961 323/323/962 322/322/963
f 322/322/963 323/323/962 324/324/964
s 242
f 323/323/965 317/317/966 324/324/967
f 324/324/967 317/317/966 318/320/968
s 243
f 318/320/969 320/319/970 324/324/971
f 324/324/971 320/319/970 322/322/972
s 244
f 321/321/973 319/318/974 323/323/975
f 323/323/975 319/318/974 317/317/976
s 245
f 325/325/977 327/326/978 326/328/979
f 326/328/979 327/326/978 328/327/980
s 246
f 329/329/981 330/330/982 327/326/983
f 327/326/983 330/330/982 328/327/984
s 247
f 329/329/985 331/331/986 330/330/987
f 330/330/987 331/331/986 332/332/988
s 248
f 331/331/989 325/325/990 332/332/991
f 332/332/991 325/325/990 326/328/992
s 249
f 326/328/993 328/327/994 332/332/995
f 332/332/995 328/327/994 330/330/996
s 250
f 329/329/997 327/326/998 331/331/999
f 331/331/999 327/326/998 325/325/1000
s 251
f 333/333/1001 335/334/1002 334/336/1003
f 334/336/1003 335/334/1002 336/335/1004
s 252
f 335/334/1005 337/337/1006 336/335/1007
f 336/335/1007 337/337/1006 338/338/1008
s 253
f 337/337/1009 339/339/1010 338/338/1011
f 338/338/1011 339/339/1010 340/340/1012
s 254
f 333/333/1013 334/336/1014 339/339/1015
f 339/339/1015 334/336/1014 340/340/1016
s 255
f 334/336/1017 336/335/1018 340/340/1019
f 340/340/1019 336/335/1018 338/338/1020
s 256
f 339/339/1021 337/337/1022 333/333/1023
f 333/333/1023 337/337/1022 335/334/1024
s 257
f 341/341/1025 342/342/1026 343/344/1027
f 343/344/1027 342/342/1026 344/343/1028
s 258
f 343/344/1029 344/343/1030 345/346/1031
f 345/346/1031 344/343/1030 346/345/1032
s 259
f 345/346/1033 346/345/1034 347/348/1035
f 347/348/1035 346/345/1034 348/347/1036
s 260
f 347/348/1037 348/347/1038 341/341/1039
f 341/341/1039 348/347/1038 342/342/1040
s 261
f 342/342/1041 348/347/1042 344/343/1043
f 344/343/1043 348/347/1042 346/345/1044
s 262
f 347/348/1045 341/341/1046 345/346/1047
f 345/346/1047 341/341/1046 343/344/1048
s 263
f 349/349/1049 350/350/1050 351/352/1051
f 351/352/1051 350/350/1050 352/351/1052
s 264
f 351/352/1053 352/351/1054 353/354/1055
f 353/354/1055 352/351/1054 354/353/1056
s 265
f 353/354/1057 354/353/1058 355/356/1059
f 355/356/1059 354/353/1058 356/355/1060
s 266
f 355/356/1061 356/355/1062 349/349/1063
f 349/349/1063 356/355/1062 350/350/1064
s 267
f 350/350/1065 356/355/1066 352/351/1067
f 352/351/1067 356/355/1066 354/353/1068
s 268
f 355/356/1069 349/349/1070 353/354/1071
f 353/354/1071 349/349/1070 351/352/1072
g default
v -0.502466 5.181278 1.106107
v -0.391759 5.181577 1.105689
v -0.503182 5.437087 1.099308
v -0.392476 5.437386 1.098889
v -0.505914 5.417496 0.362556
v -0.395207 5.417795 0.362138
v -0.505197 5.161687 0.369356
v -0.394491 5.161986 0.368937
v -0.483780 5.232165 0.511193
v -0.483114 5.161125 0.636492
v -0.419313 5.232339 0.510949
v -0.418648 5.161299 0.636248
v -0.419146 4.939267 0.345638
v -0.418481 4.868228 0.470937
v -0.483613 4.939093 0.345882
v -0.482947 4.868054 0.471181
v -0.501969 5.221523 -0.412560
v -0.499248 5.308653 0.369932
v -0.412397 5.221765 -0.412899
v -0.409675 5.308895 0.369593
v -0.411407 4.868456 -0.403508
v -0.409272 5.165014 0.373417
v -0.500980 4.868214 -0.403169
v -0.498845 5.164772 0.373756
v -0.493985 5.333290 1.102781
v -0.492237 5.345829 1.574359
v -0.398527 5.333547 1.102420
v -0.396779 5.346087 1.573998
v -0.398109 5.184527 1.106381
v -0.396361 5.197067 1.577959
v -0.493567 5.184269 1.106742
v -0.491819 5.196809 1.578320
v -0.487645 5.197286 0.781801
v -0.486984 5.267550 1.007011
v -0.407936 5.197502 0.781500
v -0.407275 5.267765 1.006710
v -0.406377 4.795025 0.906489
v -0.405716 4.865288 1.131699
v -0.486086 4.794810 0.906790
v -0.485424 4.865073 1.132000
v -0.416461 5.278521 1.999870
v -0.420247 5.268579 2.000148
v -0.426164 5.260681 2.000380
v -0.433633 5.255601 2.000543
v -0.441924 5.253835 2.000621
v -0.450224 5.255556 2.000606
v -0.457722 5.260596 2.000499
v -0.463683 5.268462 2.000312
v -0.467524 5.278384 2.000063
v -0.468869 5.289389 1.999775
v -0.467586 5.300402 1.999477
v -0.463801 5.310345 1.999199
v -0.457884 5.318242 1.998967
v -0.450414 5.323323 1.998804
v -0.442124 5.325089 1.998727
v -0.433823 5.323368 1.998742
v -0.426325 5.318328 1.998848
v -0.420364 5.310462 1.999035
v -0.416523 5.300540 1.999285
v -0.415178 5.289534 1.999572
v -0.418219 5.265912 1.525669
v -0.422005 5.255970 1.525947
v -0.427922 5.248072 1.526179
v -0.435391 5.242991 1.526342
v -0.443682 5.241225 1.526419
v -0.451982 5.242947 1.526404
v -0.459480 5.247987 1.526298
v -0.465441 5.255853 1.526111
v -0.469282 5.265774 1.525862
v -0.470627 5.276780 1.525574
v -0.469344 5.287793 1.525276
v -0.465559 5.297735 1.524998
v -0.459642 5.305633 1.524766
v -0.452172 5.310714 1.524603
v -0.443881 5.312480 1.524526
v -0.435581 5.310759 1.524541
v -0.428083 5.305718 1.524647
v -0.422122 5.297852 1.524834
v -0.418281 5.287931 1.525083
v -0.416936 5.276925 1.525371
v -0.442024 5.289462 1.999674
v -0.443782 5.276853 1.525472
vt 0.375000 0.000000
vt 0.625000 0.000000
vt 0.375000 0.250000
vt 0.625000 0.250000
vt 0.375000 0.500000
vt 0.625000 0.500000
vt 0.375000 0.750000
vt 0.625000 0.750000
vt 0.375000 1.000000
vt 0.625000 1.000000
vt 0.875000 0.000000
vt 0.875000 0.250000
vt 0.125000 0.000000
vt 0.125000 0.250000
vt 0.375000 0.000000
vt 0.625000 0.000000
vt 0.625000 0.250000
vt 0.375000 0.250000
vt 0.625000 0.500000
vt 0.375000 0.500000
vt 0.625000 0.750000
vt 0.375000 0.750000
vt 0.625000 1.000000
vt 0.375000 1.000000
vt 0.875000 0.000000
vt 0.875000 0.250000
vt 0.125000 0.000000
vt 0.125000 0.250000
vt 0.375000 0.000000
vt 0.625000 0.000000
vt 0.625000 0.250000
vt 0.375000 0.250000
vt 0.625000 0.500000
vt 0.375000 0.500000
vt 0.625000 0.750000
vt 0.375000 0.750000
vt 0.625000 1.000000
vt 0.375000 1.000000
vt 0.875000 0.000000
vt 0.875000 0.250000
vt 0.125000 0.000000
vt 0.125000 0.250000
vt 0.375000 0.000000
vt 0.625000 0.000000
vt 0.625000 0.250000
vt 0.375000 0.250000
vt 0.625000 0.500000
vt 0.375000 0.500000
vt 0.625000 0.750000
vt 0.375000 0.750000
vt 0.625000 1.000000
vt 0.375000 1.000000
vt 0.875000 0.000000
vt 0.875000 0.250000
vt 0.125000 0.000000
vt 0.125000 0.250000
vt 0.375000 0.000000
vt 0.625000 0.000000
vt 0.625000 0.250000
vt 0.375000 0.250000
vt 0.625000 0.500000
vt 0.375000 0.500000
vt 0.625000 0.750000
vt 0.375000 0.750000
vt 0.625000 1.000000
vt 0.375000 1.000000
vt 0.875000 0.000000
vt 0.875000 0.250000
vt 0.125000 0.000000
vt 0.125000 0.250000
vt 0.375000 0.312500
vt 0.387500 0.312500
vt 0.387500 0.688440
vt 0.375000 0.688440
vt 0.400000 0.312500
vt 0.400000 0.688440
vt 0.412500 0.312500
vt 0.412500 0.688440
vt 0.425000 0.312500
vt 0.425000 0.688440
vt 0.437500 0.312500
vt 0.437500 0.688440
vt 0.450000 0.312500
vt 0.450000 0.688440
vt 0.462500 0.312500
vt 0.462500 0.688440
vt 0.475000 0.312500
vt 0.475000 0.688440
vt 0.487500 0.312500
vt 0.487500 0.688440
vt 0.500000 0.312500
vt 0.500000 0.688440
vt 0.512500 0.312500
vt 0.512500 0.688440
vt 0.525000 0.312500
vt 0.525000 0.688440
vt 0.537500 0.312500
vt 0.537500 0.688440
vt 0.550000 0.312500
vt 0.550000 0.688440
vt 0.562500 0.312500
vt 0.562500 0.688440
vt 0.575000 0.312500
vt 0.575000 0.688440
vt 0.587500 0.312500
vt 0.587500 0.688440
vt 0.600000 0.312500
vt 0.600000 0.688440
vt 0.612500 0.312500
vt 0.612500 0.688440
vt 0.625000 0.312500
vt 0.625000 0.688440
vt 0.626409 0.064409
vt 0.648603 0.107966
vt 0.500000 0.150000
vt 0.591841 0.029841
vt 0.548284 0.007647
vt 0.500000 -0.000000
vt 0.451716 0.007647
vt 0.408159 0.029841
vt 0.373591 0.064409
vt 0.351397 0.107966
vt 0.343750 0.156250
vt 0.351397 0.204534
vt 0.373591 0.248091
vt 0.408159 0.282659
vt 0.451716 0.304853
vt 0.500000 0.312500
vt 0.548284 0.304853
vt 0.591841 0.282659
vt 0.626409 0.248091
vt 0.648603 0.204534
vt 0.656250 0.156250
vt 0.648603 0.892034
vt 0.626409 0.935591
vt 0.500000 0.837500
vt 0.591841 0.970159
vt 0.548284 0.992353
vt 0.500000 1.000000
vt 0.451716 0.992353
vt 0.408159 0.970159
vt 0.373591 0.935591
vt 0.351397 0.892034
vt 0.343750 0.843750
vt 0.351397 0.795466
vt 0.373591 0.751909
vt 0.408159 0.717341
vt 0.451716 0.695147
vt 0.500000 0.687500
vt 0.548284 0.695147
vt 0.591841 0.717341
vt 0.626409 0.751909
vt 0.648603 0.795466
vt 0.656250 0.843750
vn 0.003706 0.026581 0.999640
vn 0.003706 0.026581 0.999640
vn 0.003706 0.026581 0.999640
vn 0.003706 0.026581 0.999640
vn -0.002800 0.999643 -0.026571
vn -0.002800 0.999643 -0.026571
vn -0.002800 0.999643 -0.026571
vn -0.002800 0.999643 -0.026571
vn -0.003706 -0.026581 -0.999640
vn -0.003706 -0.026581 -0.999640
vn -0.003706 -0.026581 -0.999640
vn -0.003706 -0.026581 -0.999640
vn 0.002800 -0.999643 0.026571
vn 0.002800 -0.999643 0.026571
vn 0.002800 -0.999643 0.026571
vn 0.002800 -0.999643 0.026571
vn 0.999989 0.002701 -0.003779
vn 0.999989 0.002701 -0.003779
vn 0.999989 0.002701 -0.003779
vn 0.999989 0.002701 -0.003779
vn -0.999989 -0.002701 0.003779
vn -0.999989 -0.002701 0.003779
vn -0.999989 -0.002701 0.003779
vn -0.999989 -0.002701 0.003779
vn -0.000486 0.869912 0.493206
vn -0.000486 0.869912 0.493206
vn -0.000486 0.869912 0.493206
vn -0.000486 0.869912 0.493206
vn 0.999989 0.002701 -0.003778
vn 0.999989 0.002701 -0.003778
vn 0.999989 0.002701 -0.003778
vn 0.999989 0.002701 -0.003778
vn 0.000486 -0.869912 -0.493207
vn 0.000486 -0.869912 -0.493207
vn 0.000486 -0.869912 -0.493207
vn 0.000486 -0.869912 -0.493207
vn -0.999989 -0.002701 0.003779
vn -0.999989 -0.002701 0.003779
vn -0.999989 -0.002701 0.003779
vn -0.999989 -0.002701 0.003779
vn 0.004618 -0.491288 0.870985
vn 0.004618 -0.491288 0.870985
vn 0.004618 -0.491288 0.870985
vn 0.004618 -0.491288 0.870985
vn -0.004618 0.491288 -0.870985
vn -0.004618 0.491288 -0.870985
vn -0.004618 0.491288 -0.870985
vn -0.004618 0.491288 -0.870985
vn -0.003102 0.993854 -0.110655
vn -0.003102 0.993854 -0.110655
vn -0.003102 0.993854 -0.110655
vn -0.003102 0.993854 -0.110655
vn 0.999989 0.002701 -0.003779
vn 0.999989 0.002701 -0.003779
vn 0.999989 0.002701 -0.003779
vn 0.999989 0.002701 -0.003779
vn 0.003871 -0.934250 0.356599
vn 0.003871 -0.934250 0.356599
vn 0.003871 -0.934250 0.356599
vn 0.003871 -0.934250 0.356599
vn -0.999989 -0.002701 0.003779
vn -0.999989 -0.002701 0.003779
vn -0.999989 -0.002701 0.003779
vn -0.999989 -0.002701 0.003779
vn 0.003706 0.026581 0.999640
vn 0.003706 0.026581 0.999640
vn 0.003706 0.026581 0.999640
vn 0.003706 0.026581 0.999640
vn -0.003706 -0.026581 -0.999640
vn -0.003706 -0.026581 -0.999640
vn -0.003706 -0.026581 -0.999640
vn -0.003706 -0.026581 -0.999640
vn -0.002800 0.999643 -0.026571
vn -0.002800 0.999643 -0.026571
vn -0.002800 0.999643 -0.026571
vn -0.002800 0.999643 -0.026571
vn 0.999989 0.002701 -0.003779
vn 0.999989 0.002701 -0.003779
vn 0.999989 0.002701 -0.003779
vn 0.999989 0.002701 -0.003779
vn 0.002800 -0.999643 0.026571
vn 0.002800 -0.999643 0.026571
vn 0.002800 -0.999643 0.026571
vn 0.002800 -0.999643 0.026571
vn -0.999989 -0.002701 0.003779
vn -0.999989 -0.002701 0.003779
vn -0.999989 -0.002701 0.003779
vn -0.999989 -0.002701 0.003779
vn 0.003706 0.026581 0.999640
vn 0.003706 0.026581 0.999640
vn 0.003706 0.026581 0.999640
vn 0.003706 0.026581 0.999640
vn -0.003706 -0.026581 -0.999640
vn -0.003706 -0.026581 -0.999640
vn -0.003706 -0.026581 -0.999640
vn -0.003706 -0.026581 -0.999640
vn -0.003704 0.954615 -0.297819
vn -0.003704 0.954615 -0.297819
vn -0.003704 0.954615 -0.297819
vn -0.003704 0.954615 -0.297819
vn 0.999989 0.002701 -0.003779
vn 0.999989 0.002701 -0.003779
vn 0.999989 0.002701 -0.003779
vn 0.999989 0.002701 -0.003779
vn 0.003704 -0.954615 0.297819
vn 0.003704 -0.954615 0.297819
vn 0.003704 -0.954615 0.297819
vn 0.003704 -0.954615 0.297819
vn -0.999989 -0.002701 0.003779
vn -0.999989 -0.002701 0.003779
vn -0.999989 -0.002701 0.003779
vn -0.999989 -0.002701 0.003779
vn 0.002808 0.296587 0.955002
vn 0.002808 0.296587 0.955002
vn 0.002808 0.296587 0.955002
vn 0.002808 0.296587 0.955002
vn -0.002808 -0.296587 -0.955002
vn -0.002808 -0.296587 -0.955002
vn -0.002808 -0.296587 -0.955002
vn -0.002808 -0.296587 -0.955002
vn 0.971987 -0.235019 0.002646
vn 0.878562 -0.477535 0.009441
vn 0.878562 -0.477535 0.009441
vn 0.971987 -0.235019 0.002646
vn 0.696244 -0.717615 0.016501
vn 0.696244 -0.717615 0.016501
vn 0.398650 -0.916817 0.022901
vn 0.398650 -0.916817 0.022901
vn 0.002800 -0.999643 0.026571
vn 0.002800 -0.999643 0.026571
vn -0.393508 -0.918956 0.025894
vn -0.393508 -0.918956 0.025894
vn -0.692213 -0.721365 0.021748
vn -0.692213 -0.721365 0.021748
vn -0.875873 -0.482274 0.016071
vn -0.875873 -0.482274 0.016071
vn -0.970656 -0.240266 0.009987
vn -0.970656 -0.240266 0.009987
vn -0.999989 -0.002701 0.003779
vn -0.999989 -0.002701 0.003779
vn -0.971987 0.235019 -0.002646
vn -0.971987 0.235019 -0.002646
vn -0.878561 0.477536 -0.009441
vn -0.878561 0.477536 -0.009441
vn -0.696245 0.717615 -0.016501
vn -0.696245 0.717615 -0.016501
vn -0.398654 0.916816 -0.022901
vn -0.398654 0.916816 -0.022901
vn -0.002800 0.999643 -0.026571
vn -0.002800 0.999643 -0.026571
vn 0.393511 0.918955 -0.025894
vn 0.393511 0.918955 -0.025894
vn 0.692214 0.721364 -0.021748
vn 0.692214 0.721364 -0.021748
vn 0.875873 0.482274 -0.016071
vn 0.875873 0.482274 -0.016071
vn 0.970656 0.240266 -0.009987
vn 0.970656 0.240266 -0.009987
vn 0.999989 0.002701 -0.003779
vn 0.999989 0.002701 -0.003779
vn 0.003706 0.026571 0.999640
vn 0.003706 0.026601 0.999639
vn 0.003706 0.026581 0.999640
vn 0.003706 0.026571 0.999640
vn 0.003706 0.026581 0.999640
vn 0.003706 0.026581 0.999640
vn 0.003706 0.026581 0.999640
vn 0.003706 0.026581 0.999640
vn 0.003706 0.026581 0.999640
vn 0.003706 0.026601 0.999639
vn 0.003706 0.026581 0.999640
vn 0.003706 0.026561 0.999640
vn 0.003706 0.026591 0.999640
vn 0.003706 0.026591 0.999640
vn 0.003706 0.026581 0.999640
vn 0.003706 0.026581 0.999640
vn 0.003706 0.026581 0.999640
vn 0.003706 0.026581 0.999640
vn 0.003706 0.026581 0.999640
vn 0.003706 0.026561 0.999640
vn 0.003706 0.026581 0.999640
vn -0.003706 -0.026581 -0.999640
vn -0.003706 -0.026581 -0.999640
vn -0.003706 -0.026581 -0.999640
vn -0.003706 -0.026581 -0.999640
vn -0.003706 -0.026581 -0.999640
vn -0.003706 -0.026581 -0.999640
vn -0.003706 -0.026586 -0.999640
vn -0.003706 -0.026586 -0.999640
vn -0.003706 -0.026581 -0.999640
vn -0.003706 -0.026581 -0.999640
vn -0.003706 -0.026581 -0.999640
vn -0.003706 -0.026581 -0.999640
vn -0.003706 -0.026581 -0.999640
vn -0.003706 -0.026581 -0.999640
vn -0.003706 -0.026581 -0.999640
vn -0.003706 -0.026581 -0.999640
vn -0.003706 -0.026576 -0.999640
vn -0.003706 -0.026576 -0.999640
vn -0.003706 -0.026581 -0.999640
vn -0.003706 -0.026581 -0.999640
vn -0.003706 -0.026581 -0.999640
s off
g polySurface8
usemtl initialShadingGroup
f 357/357/1073 358/358/1074 360/360/1075 359/359/1076
f 359/359/1077 360/360/1078 362/362/1079 361/361/1080
f 361/361/1081 362/362/1082 364/364/1083 363/363/1084
f 363/363/1085 364/364/1086 358/366/1087 357/365/1088
f 358/358/1089 364/367/1090 362/368/1091 360/360/1092
f 363/369/1093 357/357/1094 359/359/1095 361/370/1096
f 365/371/1097 366/372/1098 368/373/1099 367/374/1100
f 367/374/1101 368/373/1102 370/375/1103 369/376/1104
f 369/376/1105 370/375/1106 372/377/1107 371/378/1108
f 371/378/1109 372/377/1110 366/379/1111 365/380/1112
f 366/372/1113 372/381/1114 370/382/1115 368/373/1116
f 371/383/1117 365/371/1118 367/374/1119 369/384/1120
f 373/385/1121 374/386/1122 376/387/1123 375/388/1124
f 375/388/1125 376/387/1126 378/389/1127 377/390/1128
f 377/390/1129 378/389/1130 380/391/1131 379/392/1132
f 379/392/1133 380/391/1134 374/393/1135 373/394/1136
f 374/386/1137 380/395/1138 378/396/1139 376/387/1140
f 379/397/1141 373/385/1142 375/388/1143 377/398/1144
f 381/399/1145 382/400/1146 384/401/1147 383/402/1148
f 383/402/1149 384/401/1150 386/403/1151 385/404/1152
f 385/404/1153 386/403/1154 388/405/1155 387/406/1156
f 387/406/1157 388/405/1158 382/407/1159 381/408/1160
f 382/400/1161 388/409/1162 386/410/1163 384/401/1164
f 387/411/1165 381/399/1166 383/402/1167 385/412/1168
f 389/413/1169 390/414/1170 392/415/1171 391/416/1172
f 391/416/1173 392/415/1174 394/417/1175 393/418/1176
f 393/418/1177 394/417/1178 396/419/1179 395/420/1180
f 395/420/1181 396/419/1182 390/421/1183 389/422/1184
f 390/414/1185 396/423/1186 394/424/1187 392/415/1188
f 395/425/1189 389/413/1190 391/416/1191 393/426/1192
s 31
f 397/427/1193 398/428/1194 418/429/1195 417/430/1196
f 398/428/1194 399/431/1197 419/432/1198 418/429/1195
f 399/431/1197 400/433/1199 420/434/1200 419/432/1198
f 400/433/1199 401/435/1201 421/436/1202 420/434/1200
f 401/435/1201 402/437/1203 422/438/1204 421/436/1202
f 402/437/1203 403/439/1205 423/440/1206 422/438/1204
f 403/439/1205 404/441/1207 424/442/1208 423/440/1206
f 404/441/1207 405/443/1209 425/444/1210 424/442/1208
f 405/443/1209 406/445/1211 426/446/1212 425/444/1210
f 406/445/1211 407/447/1213 427/448/1214 426/446/1212
f 407/447/1213 408/449/1215 428/450/1216 427/448/1214
f 408/449/1215 409/451/1217 429/452/1218 428/450/1216
f 409/451/1217 410/453/1219 430/454/1220 429/452/1218
f 410/453/1219 411/455/1221 431/456/1222 430/454/1220
f 411/455/1221 412/457/1223 432/458/1224 431/456/1222
f 412/457/1223 413/459/1225 433/460/1226 432/458/1224
f 413/459/1225 414/461/1227 434/462/1228 433/460/1226
f 414/461/1227 415/463/1229 435/464/1230 434/462/1228
f 415/463/1229 416/465/1231 436/466/1232 435/464/1230
f 416/465/1231 397/467/1193 417/468/1196 436/466/1232
s 32
f 398/469/1233 397/470/1234 437/471/1235
f 399/472/1236 398/469/1233 437/471/1235
f 400/473/1237 399/472/1236 437/471/1235
f 401/474/1238 400/473/1237 437/471/1235
f 402/475/1239 401/474/1238 437/471/1235
f 403/476/1240 402/475/1239 437/471/1235
f 404/477/1241 403/476/1240 437/471/1235
f 405/478/1242 404/477/1241 437/471/1235
f 406/479/1243 405/478/1242 437/471/1235
f 407/480/1244 406/479/1243 437/471/1235
f 408/481/1245 407/480/1244 437/471/1235
f 409/482/1246 408/481/1245 437/471/1235
f 410/483/1247 409/482/1246 437/471/1235
f 411/484/1248 410/483/1247 437/471/1235
f 412/485/1249 411/484/1248 437/471/1235
f 413/486/1250 412/485/1249 437/471/1235
f 414/487/1251 413/486/1250 437/471/1235
f 415/488/1252 414/487/1251 437/471/1235
f 416/489/1253 415/488/1252 437/471/1235
f 397/470/1234 416/489/1253 437/471/1235
s 33
f 417/490/1254 418/491/1255 438/492/1256
f 418/491/1255 419/493/1257 438/492/1256
f 419/493/1257 420/494/1258 438/492/1256
f 420/494/1258 421/495/1259 438/492/1256
f 421/495/1259 422/496/1260 438/492/1256
f 422/496/1260 423/497/1261 438/492/1256
f 423/497/1261 424/498/1262 438/492/1256
f 424/498/1262 425/499/1263 438/492/1256
f 425/499/1263 426/500/1264 438/492/1256
f 426/500/1264 427/501/1265 438/492/1256
f 427/501/1265 428/502/1266 438/492/1256
f 428/502/1266 429/503/1267 438/492/1256
f 429/503/1267 430/504/1268 438/492/1256
f 430/504/1268 431/505/1269 438/492/1256
f 431/505/1269 432/506/1270 438/492/1256
f 432/506/1270 433/507/1271 438/492/1256
f 433/507/1271 434/508/1272 438/492/1256
f 434/508/1272 435/509/1273 438/492/1256
f 435/509/1273 436/510/1274 438/492/1256
f 436/510/1274 417/490/1254 438/492/1256
